EESchema Schematic File Version 4
LIBS:beagle-cube-cache
EELAYER 29 0
EELAYER END
$Descr A2 23386 16535
encoding utf-8
Sheet 1 8
Title "Beagle Cube"
Date "2019-09-03"
Rev "A1"
Comp "Adam Newhouse"
Comment1 "Copyright 2019"
Comment2 ""
Comment3 ""
Comment4 ""
$EndDescr
Text Label 9950 3600 0    50   ~ 0
SD_DAT3
Text Label 9950 3500 0    50   ~ 0
SD_DAT2
Text Label 9950 3400 0    50   ~ 0
SD_DAT1
Text Label 9950 3300 0    50   ~ 0
SD_DAT0
Text Label 9950 3200 0    50   ~ 0
SD_CMD
Text Label 9950 3100 0    50   ~ 0
SD_CLK
Wire Wire Line
	9950 3600 10300 3600
Wire Wire Line
	10300 3500 9950 3500
Wire Wire Line
	9950 3400 10300 3400
Wire Wire Line
	10300 3300 9950 3300
Wire Wire Line
	9950 3200 10300 3200
Wire Wire Line
	10300 3100 9950 3100
Text Label 13450 3600 2    50   ~ 0
MMC1_DAT0
Text Label 13450 3700 2    50   ~ 0
MMC1_DAT1
Text Label 13450 3800 2    50   ~ 0
MMC1_DAT2
Text Label 13450 3900 2    50   ~ 0
MMC1_DAT3
Text Label 13450 4000 2    50   ~ 0
MMC1_DAT4
Text Label 13450 4100 2    50   ~ 0
MMC1_DAT5
Text Label 13450 4200 2    50   ~ 0
MMC1_DAT6
Text Label 13450 4300 2    50   ~ 0
MMC1_DAT7
Text Label 13450 3300 2    50   ~ 0
MMC1_CMD
Text Label 13450 3200 2    50   ~ 0
MMC1_CLK
Wire Wire Line
	13450 3600 13000 3600
Wire Wire Line
	13000 3700 13450 3700
Wire Wire Line
	13450 3800 13000 3800
Wire Wire Line
	13000 3900 13450 3900
Wire Wire Line
	13450 4000 13000 4000
Wire Wire Line
	13000 4100 13450 4100
Wire Wire Line
	13450 4200 13000 4200
Wire Wire Line
	13000 4300 13450 4300
Wire Wire Line
	13000 3300 13450 3300
Wire Wire Line
	13000 3200 13450 3200
Text Label 4800 5100 0    50   ~ 0
USB0_D_N
Text Label 4800 5200 0    50   ~ 0
USB0_D_P
Text Label 4800 5000 0    50   ~ 0
USB0_VBUS
Text Label 4800 5300 0    50   ~ 0
USB0_ID
Text Label 9850 1200 0    50   ~ 0
UART0_TXD
Text Label 9850 1300 0    50   ~ 0
UART0_RXD
Text Label 9700 1900 0    50   ~ 0
UART1_RXD
Text Label 9700 1800 0    50   ~ 0
UART1_TXD
Wire Wire Line
	5300 5100 4800 5100
Wire Wire Line
	4800 5200 5300 5200
Wire Wire Line
	5300 5000 4800 5000
Wire Wire Line
	4800 5300 5300 5300
Text Label 13450 1200 2    50   ~ 0
MMC2_CLK
Text Label 13450 5200 2    50   ~ 0
MMC2_DAT3
Text Label 13450 5100 2    50   ~ 0
MMC2_DAT2
Text Label 13450 5000 2    50   ~ 0
MMC2_DAT1
Text Label 13450 4900 2    50   ~ 0
MMC2_DAT0
Text Label 13450 4800 2    50   ~ 0
MMC2_DAT7
Text Label 13450 4700 2    50   ~ 0
MMC2_DAT6
Text Label 13450 4600 2    50   ~ 0
MMC2_DAT5
Text Label 13450 4500 2    50   ~ 0
MMC2_DAT4
Text Label 13450 3400 2    50   ~ 0
MMC2_CMD
Wire Wire Line
	13000 3400 13450 3400
Wire Wire Line
	13000 4600 13450 4600
Wire Wire Line
	13450 4700 13000 4700
Wire Wire Line
	13000 4800 13450 4800
Wire Wire Line
	13450 4900 13000 4900
Wire Wire Line
	13000 5000 13450 5000
Wire Wire Line
	13450 5100 13000 5100
Wire Wire Line
	13000 5200 13450 5200
Wire Wire Line
	13450 1200 13000 1200
Text Label 14850 2100 0    50   ~ 0
UART2_TXD
Text Label 14850 1200 0    50   ~ 0
UART2_RXD
Wire Wire Line
	14850 1200 15300 1200
Wire Wire Line
	15300 2100 14850 2100
Text Label 14700 10200 0    50   ~ 0
UART3_RXD
Text Label 14700 10100 0    50   ~ 0
UART3_TXD
Text Label 14850 1500 0    50   ~ 0
UART4_TXD
Text Label 14850 1600 0    50   ~ 0
UART4_RXD
Wire Wire Line
	14850 1500 15300 1500
Wire Wire Line
	15300 1600 14850 1600
Text Label 14850 1900 0    50   ~ 0
UART5_RXD
Text Label 14850 2700 0    50   ~ 0
UART5_TXD
Wire Wire Line
	14850 1900 15300 1900
Wire Wire Line
	14850 2700 15300 2700
$Sheet
S 9100 1600 550  500 
U 5D7285C5
F0 "UART1" 50
F1 "RS422.sch" 50
F2 "D" I R 9650 1800 50 
F3 "R" O R 9650 1900 50 
F4 "A" I L 9100 1700 50 
F5 "B" I L 9100 1800 50 
F6 "Z" O L 9100 1900 50 
F7 "Y" O L 9100 2000 50 
$EndSheet
$Sheet
S 14100 9900 550  500 
U 5D77CE26
F0 "UART3" 50
F1 "RS422.sch" 50
F2 "D" I R 14650 10100 50 
F3 "R" O R 14650 10200 50 
F4 "A" I L 14100 10300 50 
F5 "B" I L 14100 10200 50 
F6 "Z" O L 14100 10100 50 
F7 "Y" O L 14100 10000 50 
$EndSheet
Wire Wire Line
	14650 10100 15150 10100
Wire Wire Line
	14650 10200 15150 10200
Text Label 13750 10000 0    50   ~ 0
UART3_Y
Text Label 13750 10100 0    50   ~ 0
UART3_Z
Text Label 13750 10200 0    50   ~ 0
UART3_B
Text Label 13750 10300 0    50   ~ 0
UART3_A
Wire Wire Line
	13750 10000 14100 10000
Wire Wire Line
	14100 10100 13750 10100
Wire Wire Line
	13750 10200 14100 10200
Wire Wire Line
	14100 10300 13750 10300
Text Label 8750 2000 0    50   ~ 0
UART1_Y
Text Label 8750 1900 0    50   ~ 0
UART1_Z
Text Label 8750 1800 0    50   ~ 0
UART1_B
Text Label 8750 1700 0    50   ~ 0
UART1_A
Wire Wire Line
	8750 2000 9100 2000
Wire Wire Line
	9100 1900 8750 1900
Wire Wire Line
	8750 1800 9100 1800
Wire Wire Line
	9100 1700 8750 1700
$Sheet
S 1800 9100 550  1150
U 5D820ACD
F0 "MMC1" 50
F1 "EMMC.sch" 50
F2 "DAT0" B L 1800 9200 50 
F3 "DAT1" B L 1800 9300 50 
F4 "DAT2" B L 1800 9400 50 
F5 "DAT3" B L 1800 9500 50 
F6 "DAT4" B L 1800 9600 50 
F7 "DAT5" B L 1800 9700 50 
F8 "DAT6" B L 1800 9800 50 
F9 "DAT7" B L 1800 9900 50 
F10 "CMD" I L 1800 10050 50 
F11 "CLK" I L 1800 10150 50 
$EndSheet
Text Label 1350 9200 0    50   ~ 0
MMC1_DAT0
Text Label 1350 9300 0    50   ~ 0
MMC1_DAT1
Text Label 1350 9400 0    50   ~ 0
MMC1_DAT2
Text Label 1350 9500 0    50   ~ 0
MMC1_DAT3
Text Label 1350 9600 0    50   ~ 0
MMC1_DAT4
Text Label 1350 9700 0    50   ~ 0
MMC1_DAT5
Text Label 1350 9800 0    50   ~ 0
MMC1_DAT6
Text Label 1350 9900 0    50   ~ 0
MMC1_DAT7
Wire Wire Line
	1350 9200 1800 9200
Wire Wire Line
	1800 9300 1350 9300
Wire Wire Line
	1350 9400 1800 9400
Wire Wire Line
	1800 9500 1350 9500
Wire Wire Line
	1350 9600 1800 9600
Wire Wire Line
	1800 9700 1350 9700
Wire Wire Line
	1350 9800 1800 9800
Wire Wire Line
	1800 9900 1350 9900
Text Label 1350 10050 0    50   ~ 0
MMC1_CMD
Text Label 1350 10150 0    50   ~ 0
MMC1_CLK
Wire Wire Line
	1800 10150 1350 10150
Wire Wire Line
	1800 10050 1350 10050
$Sheet
S 3150 9100 550  1150
U 5D8BF7DF
F0 "MMC2" 50
F1 "EMMC.sch" 50
F2 "DAT0" B L 3150 9200 50 
F3 "DAT1" B L 3150 9300 50 
F4 "DAT2" B L 3150 9400 50 
F5 "DAT3" B L 3150 9500 50 
F6 "DAT4" B L 3150 9600 50 
F7 "DAT5" B L 3150 9700 50 
F8 "DAT6" B L 3150 9800 50 
F9 "DAT7" B L 3150 9900 50 
F10 "CMD" I L 3150 10050 50 
F11 "CLK" I L 3150 10150 50 
$EndSheet
Text Label 2700 10150 0    50   ~ 0
MMC2_CLK
Text Label 2700 9500 0    50   ~ 0
MMC2_DAT3
Text Label 2700 9400 0    50   ~ 0
MMC2_DAT2
Text Label 2700 9300 0    50   ~ 0
MMC2_DAT1
Text Label 2700 9200 0    50   ~ 0
MMC2_DAT0
Text Label 2700 9900 0    50   ~ 0
MMC2_DAT7
Text Label 2700 9800 0    50   ~ 0
MMC2_DAT6
Text Label 2700 9700 0    50   ~ 0
MMC2_DAT5
Text Label 2700 9600 0    50   ~ 0
MMC2_DAT4
Wire Wire Line
	2700 9600 3150 9600
Wire Wire Line
	3150 9700 2700 9700
Wire Wire Line
	2700 9800 3150 9800
Wire Wire Line
	3150 9900 2700 9900
Wire Wire Line
	2700 9200 3150 9200
Wire Wire Line
	3150 9300 2700 9300
Wire Wire Line
	2700 9400 3150 9400
Wire Wire Line
	3150 9500 2700 9500
Wire Wire Line
	2700 10150 3150 10150
Text Label 2700 10050 0    50   ~ 0
MMC2_CMD
Wire Wire Line
	3150 10050 2700 10050
$Comp
L beagle-cube-rescue:Micro_SD_Card-Connector-beagle-cube-rescue J1
U 1 1 5D9C2879
P 4050 11700
F 0 "J1" H 4000 12417 50  0000 C CNN
F 1 "Micro_SD_Card" H 4000 12326 50  0000 C CNN
F 2 "Connector_Card:microSD_HC_Wuerth_693072010801" H 5200 12000 50  0001 C CNN
F 3 "http://katalog.we-online.de/em/datasheet/693072010801.pdf" H 4050 11700 50  0001 C CNN
	1    4050 11700
	1    0    0    -1  
$EndComp
Text Label 1000 11500 0    50   ~ 0
SD_DAT3
Text Label 1000 11400 0    50   ~ 0
SD_DAT2
Text Label 1000 12100 0    50   ~ 0
SD_DAT1
Text Label 1000 12000 0    50   ~ 0
SD_DAT0
Text Label 1000 11600 0    50   ~ 0
SD_CMD
Text Label 1000 11800 0    50   ~ 0
SD_CLK
Wire Wire Line
	1000 11400 1350 11400
$Comp
L beagle-cube-rescue:C_Small-Device-beagle-cube-rescue C2
U 1 1 5D794E86
P 1050 10800
F 0 "C2" H 1142 10846 50  0000 L CNN
F 1 "1uF" H 1142 10755 50  0000 L CNN
F 2 "Capacitor_SMD:C_0603_1608Metric" H 1050 10800 50  0001 C CNN
F 3 "~" H 1050 10800 50  0001 C CNN
	1    1050 10800
	1    0    0    -1  
$EndComp
$Comp
L beagle-cube-rescue:C_Small-Device-beagle-cube-rescue C1
U 1 1 5D7E3562
P 600 10800
F 0 "C1" H 692 10846 50  0000 L CNN
F 1 "100nF" H 692 10755 50  0000 L CNN
F 2 "Capacitor_SMD:C_0603_1608Metric" H 600 10800 50  0001 C CNN
F 3 "~" H 600 10800 50  0001 C CNN
	1    600  10800
	1    0    0    -1  
$EndComp
$Comp
L beagle-cube-rescue:GND-power-beagle-cube-rescue #PWR02
U 1 1 5D7E3E40
P 600 11000
F 0 "#PWR02" H 600 10750 50  0001 C CNN
F 1 "GND" H 605 10827 50  0000 C CNN
F 2 "" H 600 11000 50  0001 C CNN
F 3 "" H 600 11000 50  0001 C CNN
	1    600  11000
	1    0    0    -1  
$EndComp
$Comp
L beagle-cube-rescue:+3V3-power-beagle-cube-rescue #PWR01
U 1 1 5D7E5961
P 600 10600
F 0 "#PWR01" H 600 10450 50  0001 C CNN
F 1 "+3V3" H 615 10773 50  0000 C CNN
F 2 "" H 600 10600 50  0001 C CNN
F 3 "" H 600 10600 50  0001 C CNN
	1    600  10600
	1    0    0    -1  
$EndComp
Wire Wire Line
	600  10600 600  10650
Wire Wire Line
	1050 10700 1050 10650
Wire Wire Line
	1050 10900 1050 10950
Connection ~ 600  10650
Wire Wire Line
	600  10650 600  10700
Wire Wire Line
	600  10900 600  10950
Connection ~ 600  10950
Wire Wire Line
	600  10950 600  11000
Wire Wire Line
	600  10650 1050 10650
Connection ~ 1050 10650
Wire Wire Line
	600  10950 1050 10950
$Comp
L beagle-cube-rescue:Earth-power-beagle-cube-rescue #PWR05
U 1 1 5D90B77B
P 4900 12350
F 0 "#PWR05" H 4900 12100 50  0001 C CNN
F 1 "Earth" H 4900 12200 50  0001 C CNN
F 2 "" H 4900 12350 50  0001 C CNN
F 3 "~" H 4900 12350 50  0001 C CNN
	1    4900 12350
	1    0    0    -1  
$EndComp
Wire Wire Line
	4850 12300 4900 12300
Wire Wire Line
	4900 12300 4900 12350
$Comp
L beagle-cube-rescue:Battery_Cell-Device-beagle-cube-rescue BT1
U 1 1 5D92ECA0
P 1850 14650
F 0 "BT1" H 1968 14746 50  0000 L CNN
F 1 "ML-1220-F1AN" H 1968 14655 50  0000 L CNN
F 2 "footprints:ML-1220-F1AN" V 1850 14710 50  0001 C CNN
F 3 "~" V 1850 14710 50  0001 C CNN
	1    1850 14650
	1    0    0    -1  
$EndComp
$Comp
L beagle-cube-rescue:GND-power-beagle-cube-rescue #PWR04
U 1 1 5D933E1C
P 3400 14950
F 0 "#PWR04" H 3400 14700 50  0001 C CNN
F 1 "GND" H 3405 14777 50  0000 C CNN
F 2 "" H 3400 14950 50  0001 C CNN
F 3 "" H 3400 14950 50  0001 C CNN
	1    3400 14950
	1    0    0    -1  
$EndComp
Wire Wire Line
	3400 14900 3400 14950
$Comp
L beagle-cube-rescue:+3V3-power-beagle-cube-rescue #PWR03
U 1 1 5D952343
P 3500 14000
F 0 "#PWR03" H 3500 13850 50  0001 C CNN
F 1 "+3V3" H 3515 14173 50  0000 C CNN
F 2 "" H 3500 14000 50  0001 C CNN
F 3 "" H 3500 14000 50  0001 C CNN
	1    3500 14000
	1    0    0    -1  
$EndComp
Wire Wire Line
	3400 14050 3400 14100
Text Notes 550  8800 0    138  ~ 28
STORAGE
Text Notes 600  800  0    138  ~ 28
OSD335X SIP
Text Notes 5100 6800 0    138  ~ 28
9-AXIS IMU
Text Notes 550  12800 0    138  ~ 28
RTC
Text Notes 17300 7600 0    138  ~ 28
BACKPLANE
$Comp
L beagle-cube-rescue:Conn_02x40_Odd_Even-Connector_Generic-beagle-cube-rescue J3
U 1 1 5DEC01A3
P 18200 10650
F 0 "J3" H 18250 12767 50  0000 C CNN
F 1 "Conn_02x40_Odd_Even" H 18250 12676 50  0000 C CNN
F 2 "" H 18200 10650 50  0001 C CNN
F 3 "~" H 18200 10650 50  0001 C CNN
	1    18200 10650
	1    0    0    -1  
$EndComp
$Comp
L beagle-cube-rescue:Conn_02x40_Odd_Even-Connector_Generic-beagle-cube-rescue J4
U 1 1 5DEC5A0A
P 21300 10650
F 0 "J4" H 21350 12767 50  0000 C CNN
F 1 "Conn_02x40_Odd_Even" H 21350 12676 50  0000 C CNN
F 2 "" H 21300 10650 50  0001 C CNN
F 3 "~" H 21300 10650 50  0001 C CNN
	1    21300 10650
	1    0    0    -1  
$EndComp
Text Notes 5950 11700 0    138  ~ 28
BOOT CONFIG
$Comp
L beagle-cube:OSD3358-512M-BSM U1
U 2 1 5D80FCBF
P 5500 5700
F 0 "U1" H 6600 10561 45  0000 C CNN
F 1 "OSD3358-512M-BSM" H 6600 10477 45  0000 C CNN
F 2 "footprints:OSD335X-BGA-256" H 5530 5850 20  0001 C CNN
F 3 "" H 5500 5700 60  0001 C CNN
	2    5500 5700
	1    0    0    -1  
$EndComp
$Comp
L beagle-cube:OSD3358-512M-BSM U1
U 3 1 5D88788D
P 10500 5900
F 0 "U1" H 11650 10961 45  0000 C CNN
F 1 "OSD3358-512M-BSM" H 11650 10877 45  0000 C CNN
F 2 "footprints:OSD335X-BGA-256" H 10530 6050 20  0001 C CNN
F 3 "" H 10500 5900 60  0001 C CNN
	3    10500 5900
	1    0    0    -1  
$EndComp
$Comp
L beagle-cube:OSD3358-512M-BSM U1
U 1 1 5DA8DC59
P 1500 7800
F 0 "U1" H 2700 14761 45  0000 C CNN
F 1 "OSD3358-512M-BSM" H 2700 14677 45  0000 C CNN
F 2 "footprints:OSD335X-BGA-256" H 1530 7950 20  0001 C CNN
F 3 "" H 1500 7800 60  0001 C CNN
	1    1500 7800
	1    0    0    -1  
$EndComp
$Comp
L beagle-cube:OSD3358-512M-BSM U1
U 4 1 5DACC6CC
P 15500 3700
F 0 "U1" H 16500 6561 45  0000 C CNN
F 1 "OSD3358-512M-BSM" H 16500 6477 45  0000 C CNN
F 2 "footprints:OSD335X-BGA-256" H 15530 3850 20  0001 C CNN
F 3 "" H 15500 3700 60  0001 C CNN
	4    15500 3700
	1    0    0    -1  
$EndComp
$Comp
L beagle-cube:OSD3358-512M-BSM U1
U 5 1 5DAE1B50
P 20000 2300
F 0 "U1" H 20000 3761 45  0000 C CNN
F 1 "OSD3358-512M-BSM" H 20000 3677 45  0000 C CNN
F 2 "footprints:OSD335X-BGA-256" H 20030 2450 20  0001 C CNN
F 3 "" H 20000 2300 60  0001 C CNN
	5    20000 2300
	1    0    0    -1  
$EndComp
$Comp
L beagle-cube:OSD3358-512M-BSM U1
U 6 1 5DAF7353
P 15600 5900
F 0 "U1" H 16500 7961 45  0000 C CNN
F 1 "OSD3358-512M-BSM" H 16500 7877 45  0000 C CNN
F 2 "footprints:OSD335X-BGA-256" H 15630 6050 20  0001 C CNN
F 3 "" H 15600 5900 60  0001 C CNN
	6    15600 5900
	1    0    0    -1  
$EndComp
Wire Notes Line width 20
	22900 6500 5000 6500
Wire Notes Line width 20
	5000 8500 500  8500
Wire Notes Line width 20
	5000 12500 500  12500
Wire Notes Line width 20
	5000 6500 5000 16050
Wire Wire Line
	18800 1200 18700 1200
Wire Wire Line
	18700 1200 18700 1300
Wire Wire Line
	21200 1200 21300 1200
Wire Wire Line
	21300 1200 21300 1300
Wire Wire Line
	21200 1300 21300 1300
Connection ~ 21300 1300
Wire Wire Line
	21300 1300 21300 1400
Wire Wire Line
	21200 1400 21300 1400
Connection ~ 21300 1400
Wire Wire Line
	21300 1400 21300 1500
Wire Wire Line
	21300 1500 21200 1500
Connection ~ 21300 1500
Wire Wire Line
	21300 1500 21300 1700
Wire Wire Line
	21200 1700 21300 1700
Connection ~ 21300 1700
Wire Wire Line
	21300 1700 21300 1800
Wire Wire Line
	21200 1800 21300 1800
Connection ~ 21300 1800
Wire Wire Line
	21300 1800 21300 2000
Wire Wire Line
	21200 2000 21300 2000
Connection ~ 21300 2000
Wire Wire Line
	21300 2000 21300 2100
Wire Wire Line
	21200 2100 21300 2100
Connection ~ 21300 2100
Wire Wire Line
	21300 2100 21300 2300
Wire Wire Line
	21200 2300 21300 2300
Connection ~ 21300 2300
Wire Wire Line
	21300 2300 21300 2400
Wire Wire Line
	21200 2400 21300 2400
Connection ~ 21300 2400
Wire Wire Line
	21300 2400 21300 2500
Wire Wire Line
	21200 2500 21300 2500
Connection ~ 21300 2500
Wire Wire Line
	21300 2500 21300 2600
Wire Wire Line
	21200 2600 21300 2600
Connection ~ 21300 2600
Wire Wire Line
	21300 2600 21300 2700
Wire Wire Line
	21200 2700 21300 2700
Connection ~ 21300 2700
Wire Wire Line
	21300 2700 21300 2800
Wire Wire Line
	21200 2800 21300 2800
Connection ~ 21300 2800
Wire Wire Line
	21300 2800 21300 2900
Wire Wire Line
	21200 2900 21300 2900
Connection ~ 21300 2900
Wire Wire Line
	21300 2900 21300 3000
Wire Wire Line
	21200 3000 21300 3000
Connection ~ 21300 3000
Wire Wire Line
	21300 3000 21300 3200
Wire Wire Line
	21200 3200 21300 3200
Connection ~ 21300 3200
Wire Wire Line
	21300 3200 21300 3300
Wire Wire Line
	21200 3300 21300 3300
Connection ~ 21300 3300
Wire Wire Line
	21300 3300 21300 3500
Wire Wire Line
	18800 1300 18700 1300
Connection ~ 18700 1300
Wire Wire Line
	18800 1500 18700 1500
Wire Wire Line
	18700 1300 18700 1500
Connection ~ 18700 1500
Wire Wire Line
	18800 1600 18700 1600
Wire Wire Line
	18700 1500 18700 1600
Connection ~ 18700 1600
Wire Wire Line
	18700 1600 18700 1700
Wire Wire Line
	18800 1700 18700 1700
Connection ~ 18700 1700
Wire Wire Line
	18700 1700 18700 1800
Wire Wire Line
	18800 1800 18700 1800
Connection ~ 18700 1800
Wire Wire Line
	18700 1800 18700 1900
Wire Wire Line
	18800 1900 18700 1900
Connection ~ 18700 1900
Wire Wire Line
	18700 1900 18700 2000
Wire Wire Line
	18800 2000 18700 2000
Connection ~ 18700 2000
Wire Wire Line
	18700 2000 18700 2100
Wire Wire Line
	18800 2100 18700 2100
Connection ~ 18700 2100
Wire Wire Line
	18700 2100 18700 2200
Wire Wire Line
	18800 2200 18700 2200
Connection ~ 18700 2200
Wire Wire Line
	18700 2200 18700 2400
Wire Wire Line
	18800 2400 18700 2400
Connection ~ 18700 2400
Wire Wire Line
	18700 2400 18700 2500
Wire Wire Line
	18800 2500 18700 2500
Connection ~ 18700 2500
Wire Wire Line
	18700 2500 18700 2700
Wire Wire Line
	18800 2700 18700 2700
Connection ~ 18700 2700
Wire Wire Line
	18700 2700 18700 2800
Wire Wire Line
	18800 2800 18700 2800
Connection ~ 18700 2800
Wire Wire Line
	18700 2800 18700 3000
Wire Wire Line
	18800 3000 18700 3000
Connection ~ 18700 3000
Wire Wire Line
	18700 3000 18700 3100
Wire Wire Line
	18800 3100 18700 3100
Connection ~ 18700 3100
Wire Wire Line
	18700 3100 18700 3200
Wire Wire Line
	18800 3200 18700 3200
Connection ~ 18700 3200
Wire Wire Line
	18700 3200 18700 3300
Wire Wire Line
	18800 3300 18700 3300
Connection ~ 18700 3300
Wire Wire Line
	18700 3300 18700 3500
$Comp
L beagle-cube-rescue:GND-power-beagle-cube-rescue #PWR0101
U 1 1 5DF30177
P 21300 3500
F 0 "#PWR0101" H 21300 3250 50  0001 C CNN
F 1 "GND" H 21305 3327 50  0000 C CNN
F 2 "" H 21300 3500 50  0001 C CNN
F 3 "" H 21300 3500 50  0001 C CNN
	1    21300 3500
	1    0    0    -1  
$EndComp
$Comp
L beagle-cube-rescue:GND-power-beagle-cube-rescue #PWR0102
U 1 1 5DF31F60
P 18700 3500
F 0 "#PWR0102" H 18700 3250 50  0001 C CNN
F 1 "GND" H 18705 3327 50  0000 C CNN
F 2 "" H 18700 3500 50  0001 C CNN
F 3 "" H 18700 3500 50  0001 C CNN
	1    18700 3500
	1    0    0    -1  
$EndComp
Wire Wire Line
	4100 3800 4200 3800
Wire Wire Line
	4200 3800 4200 3900
Wire Wire Line
	4200 4500 4100 4500
Wire Wire Line
	4100 4400 4200 4400
Connection ~ 4200 4400
Wire Wire Line
	4200 4400 4200 4500
Wire Wire Line
	4100 4300 4200 4300
Connection ~ 4200 4300
Wire Wire Line
	4200 4300 4200 4400
Wire Wire Line
	4100 4200 4200 4200
Connection ~ 4200 4200
Wire Wire Line
	4200 4200 4200 4300
Wire Wire Line
	4100 4100 4200 4100
Connection ~ 4200 4100
Wire Wire Line
	4200 4100 4200 4200
Wire Wire Line
	4100 4000 4200 4000
Connection ~ 4200 4000
Wire Wire Line
	4200 4000 4200 4100
Wire Wire Line
	4100 3900 4200 3900
Connection ~ 4200 3900
Wire Wire Line
	4200 3900 4200 4000
Wire Wire Line
	4100 5800 4200 5800
Wire Wire Line
	4200 5800 4200 5900
Wire Wire Line
	4200 6500 4100 6500
Wire Wire Line
	4100 6400 4200 6400
Connection ~ 4200 6400
Wire Wire Line
	4200 6400 4200 6500
Wire Wire Line
	4100 6300 4200 6300
Connection ~ 4200 6300
Wire Wire Line
	4200 6300 4200 6400
Wire Wire Line
	4100 6200 4200 6200
Connection ~ 4200 6200
Wire Wire Line
	4200 6200 4200 6300
Wire Wire Line
	4100 6100 4200 6100
Connection ~ 4200 6100
Wire Wire Line
	4200 6100 4200 6200
Wire Wire Line
	4100 6000 4200 6000
Connection ~ 4200 6000
Wire Wire Line
	4200 6000 4200 6100
Wire Wire Line
	4100 5900 4200 5900
Connection ~ 4200 5900
Wire Wire Line
	4200 5900 4200 6000
$Comp
L beagle-cube-rescue:+3V3-power-beagle-cube-rescue #PWR0103
U 1 1 5D805CD7
P 4200 3700
F 0 "#PWR0103" H 4200 3550 50  0001 C CNN
F 1 "+3V3" H 4215 3873 50  0000 C CNN
F 2 "" H 4200 3700 50  0001 C CNN
F 3 "" H 4200 3700 50  0001 C CNN
	1    4200 3700
	1    0    0    -1  
$EndComp
Connection ~ 4200 3800
$Comp
L beagle-cube-rescue:+1V8-power-beagle-cube-rescue #PWR0104
U 1 1 5D816103
P 4200 5700
F 0 "#PWR0104" H 4200 5550 50  0001 C CNN
F 1 "+1V8" H 4215 5873 50  0000 C CNN
F 2 "" H 4200 5700 50  0001 C CNN
F 3 "" H 4200 5700 50  0001 C CNN
	1    4200 5700
	1    0    0    -1  
$EndComp
Connection ~ 4200 5800
Wire Wire Line
	4200 5700 4200 5800
Wire Wire Line
	4200 3700 4200 3800
Wire Wire Line
	1300 6300 1250 6300
Wire Wire Line
	1250 6300 1250 6400
Wire Wire Line
	1250 6400 1300 6400
Wire Wire Line
	1300 6700 1250 6700
Wire Wire Line
	1250 6700 1250 6800
Wire Wire Line
	1250 6800 1300 6800
Wire Wire Line
	1300 4900 1250 4900
Wire Wire Line
	1250 4900 1250 5000
Wire Wire Line
	1250 5000 1300 5000
Wire Wire Line
	1300 5200 1250 5200
Wire Wire Line
	1250 5200 1250 5300
Wire Wire Line
	1250 5300 1300 5300
Wire Wire Line
	1300 5500 1250 5500
Wire Wire Line
	1250 5500 1250 5600
Wire Wire Line
	1250 5600 1300 5600
Wire Wire Line
	1300 5800 1250 5800
Wire Wire Line
	1250 5800 1250 5900
Wire Wire Line
	1250 5900 1300 5900
Wire Wire Line
	1300 1800 1200 1800
Wire Wire Line
	1200 1800 1200 1900
Wire Wire Line
	1200 2000 1300 2000
Wire Wire Line
	1300 1900 1200 1900
Connection ~ 1200 1900
Wire Wire Line
	1200 1900 1200 2000
Wire Wire Line
	1300 1200 1200 1200
Wire Wire Line
	1200 1200 1200 1300
Wire Wire Line
	1200 1400 1300 1400
Wire Wire Line
	1300 1300 1200 1300
Connection ~ 1200 1300
Wire Wire Line
	1200 1300 1200 1400
Wire Wire Line
	4100 1200 4200 1200
Wire Wire Line
	4200 1200 4200 1300
Wire Wire Line
	4200 1500 4100 1500
Wire Wire Line
	4100 1300 4200 1300
Connection ~ 4200 1300
Wire Wire Line
	4200 1300 4200 1400
Wire Wire Line
	4100 1400 4200 1400
Connection ~ 4200 1400
Wire Wire Line
	4200 1400 4200 1500
$Sheet
S 14300 12500 700  300 
U 5D8A8FF7
F0 "CAN0" 50
F1 "can.sch" 50
F2 "CANH" B R 15000 12600 50 
F3 "CANL" B R 15000 12700 50 
F4 "CAN_TX" O L 14300 12600 50 
F5 "CAN_RX" I L 14300 12700 50 
$EndSheet
$Sheet
S 14300 11650 700  300 
U 5D8D481F
F0 "CAN1" 50
F1 "can.sch" 50
F2 "CANH" B R 15000 11750 50 
F3 "CANL" B R 15000 11850 50 
F4 "CAN_TX" O L 14300 11750 50 
F5 "CAN_RX" I L 14300 11850 50 
$EndSheet
$Comp
L beagle-cube-rescue:C_Small-Device-beagle-cube-rescue C4
U 1 1 5D967455
P 1250 14600
F 0 "C4" H 1342 14646 50  0000 L CNN
F 1 "100nF" H 1342 14555 50  0000 L CNN
F 2 "Capacitor_SMD:C_0603_1608Metric" H 1250 14600 50  0001 C CNN
F 3 "~" H 1250 14600 50  0001 C CNN
	1    1250 14600
	1    0    0    -1  
$EndComp
$Comp
L beagle-cube-rescue:GND-power-beagle-cube-rescue #PWR0106
U 1 1 5D96745F
P 1250 14800
F 0 "#PWR0106" H 1250 14550 50  0001 C CNN
F 1 "GND" H 1255 14627 50  0000 C CNN
F 2 "" H 1250 14800 50  0001 C CNN
F 3 "" H 1250 14800 50  0001 C CNN
	1    1250 14800
	1    0    0    -1  
$EndComp
$Comp
L beagle-cube-rescue:+3V3-power-beagle-cube-rescue #PWR0107
U 1 1 5D967469
P 1250 14050
F 0 "#PWR0107" H 1250 13900 50  0001 C CNN
F 1 "+3V3" H 1265 14223 50  0000 C CNN
F 2 "" H 1250 14050 50  0001 C CNN
F 3 "" H 1250 14050 50  0001 C CNN
	1    1250 14050
	1    0    0    -1  
$EndComp
Wire Wire Line
	1250 14700 1250 14800
Text Label 6050 13000 0    50   ~ 0
BOOT_0
Text Label 6050 13100 0    50   ~ 0
BOOT_1
Text Label 6050 13200 0    50   ~ 0
BOOT_2
Text Label 6050 13300 0    50   ~ 0
BOOT_3
Text Label 6050 13400 0    50   ~ 0
BOOT_4
Text Label 6050 13500 0    50   ~ 0
BOOT_5
Text Label 6050 13600 0    50   ~ 0
BOOT_6
Text Label 6050 13700 0    50   ~ 0
BOOT_7
Text Label 6050 13800 0    50   ~ 0
BOOT_8
Text Label 6050 13900 0    50   ~ 0
BOOT_9
Text Label 6050 14000 0    50   ~ 0
BOOT_10
Text Label 6050 14100 0    50   ~ 0
BOOT_11
Text Label 6050 14200 0    50   ~ 0
BOOT_12
Text Label 6050 14300 0    50   ~ 0
BOOT_13
Text Label 6050 14400 0    50   ~ 0
BOOT_14
Text Label 6050 14500 0    50   ~ 0
BOOT_15
$Comp
L beagle-cube-rescue:R_Small-Device-beagle-cube-rescue R25
U 1 1 5D85EE59
P 7050 12800
F 0 "R25" V 7100 12900 50  0000 L CNN
F 1 "100K" V 7150 12700 50  0000 L CNN
F 2 "Resistor_SMD:R_0402_1005Metric" H 7050 12800 50  0001 C CNN
F 3 "~" H 7050 12800 50  0001 C CNN
	1    7050 12800
	1    0    0    -1  
$EndComp
Wire Wire Line
	7050 12500 7050 12700
$Comp
L beagle-cube-rescue:R_Small-Device-beagle-cube-rescue R26
U 1 1 5D85EE64
P 7050 14800
F 0 "R26" V 7100 14900 50  0000 L CNN
F 1 "10k" V 7150 14800 50  0000 C CNN
F 2 "Resistor_SMD:R_0402_1005Metric" H 7050 14800 50  0001 C CNN
F 3 "~" H 7050 14800 50  0001 C CNN
	1    7050 14800
	1    0    0    -1  
$EndComp
Wire Wire Line
	7050 14900 7050 15000
$Comp
L beagle-cube-rescue:R_Small-Device-beagle-cube-rescue R27
U 1 1 5D874D7E
P 7250 12800
F 0 "R27" V 7300 12900 50  0000 L CNN
F 1 "100K" V 7350 12700 50  0000 L CNN
F 2 "Resistor_SMD:R_0402_1005Metric" H 7250 12800 50  0001 C CNN
F 3 "~" H 7250 12800 50  0001 C CNN
	1    7250 12800
	1    0    0    -1  
$EndComp
Wire Wire Line
	7250 12500 7250 12700
$Comp
L beagle-cube-rescue:R_Small-Device-beagle-cube-rescue R28
U 1 1 5D874D89
P 7250 14800
F 0 "R28" V 7300 14900 50  0000 L CNN
F 1 "10k" V 7350 14800 50  0000 C CNN
F 2 "Resistor_SMD:R_0402_1005Metric" H 7250 14800 50  0001 C CNN
F 3 "~" H 7250 14800 50  0001 C CNN
	1    7250 14800
	1    0    0    -1  
$EndComp
Wire Wire Line
	7250 14900 7250 15000
Wire Wire Line
	7250 12900 7250 14400
$Comp
L beagle-cube-rescue:R_Small-Device-beagle-cube-rescue R29
U 1 1 5D874D95
P 7450 12800
F 0 "R29" V 7500 12900 50  0000 L CNN
F 1 "100K" V 7550 12700 50  0000 L CNN
F 2 "Resistor_SMD:R_0402_1005Metric" H 7450 12800 50  0001 C CNN
F 3 "~" H 7450 12800 50  0001 C CNN
	1    7450 12800
	1    0    0    -1  
$EndComp
Wire Wire Line
	7450 12500 7450 12700
$Comp
L beagle-cube-rescue:R_Small-Device-beagle-cube-rescue R30
U 1 1 5D874DA0
P 7450 14800
F 0 "R30" V 7500 14900 50  0000 L CNN
F 1 "10k" V 7550 14800 50  0000 C CNN
F 2 "Resistor_SMD:R_0402_1005Metric" H 7450 14800 50  0001 C CNN
F 3 "~" H 7450 14800 50  0001 C CNN
	1    7450 14800
	1    0    0    -1  
$EndComp
Wire Wire Line
	7450 14900 7450 15000
Wire Wire Line
	7450 12900 7450 14300
$Comp
L beagle-cube-rescue:R_Small-Device-beagle-cube-rescue R31
U 1 1 5D88C7E4
P 7650 12800
F 0 "R31" V 7700 12900 50  0000 L CNN
F 1 "100K" V 7750 12700 50  0000 L CNN
F 2 "Resistor_SMD:R_0402_1005Metric" H 7650 12800 50  0001 C CNN
F 3 "~" H 7650 12800 50  0001 C CNN
	1    7650 12800
	1    0    0    -1  
$EndComp
Wire Wire Line
	7650 12500 7650 12700
$Comp
L beagle-cube-rescue:R_Small-Device-beagle-cube-rescue R32
U 1 1 5D88C7EF
P 7650 14800
F 0 "R32" V 7700 14900 50  0000 L CNN
F 1 "10k" V 7750 14800 50  0000 C CNN
F 2 "Resistor_SMD:R_0402_1005Metric" H 7650 14800 50  0001 C CNN
F 3 "~" H 7650 14800 50  0001 C CNN
	1    7650 14800
	1    0    0    -1  
$EndComp
Wire Wire Line
	7650 14900 7650 15000
Wire Wire Line
	7650 12900 7650 14200
$Comp
L beagle-cube-rescue:R_Small-Device-beagle-cube-rescue R33
U 1 1 5D8A367E
P 7850 12800
F 0 "R33" V 7900 12900 50  0000 L CNN
F 1 "100K" V 7950 12700 50  0000 L CNN
F 2 "Resistor_SMD:R_0402_1005Metric" H 7850 12800 50  0001 C CNN
F 3 "~" H 7850 12800 50  0001 C CNN
	1    7850 12800
	1    0    0    -1  
$EndComp
Wire Wire Line
	7850 12500 7850 12700
$Comp
L beagle-cube-rescue:R_Small-Device-beagle-cube-rescue R34
U 1 1 5D8A3689
P 7850 14800
F 0 "R34" V 7900 14900 50  0000 L CNN
F 1 "10k" V 7950 14800 50  0000 C CNN
F 2 "Resistor_SMD:R_0402_1005Metric" H 7850 14800 50  0001 C CNN
F 3 "~" H 7850 14800 50  0001 C CNN
	1    7850 14800
	1    0    0    -1  
$EndComp
Wire Wire Line
	7850 14900 7850 15000
Wire Wire Line
	7850 12900 7850 14100
$Comp
L beagle-cube-rescue:R_Small-Device-beagle-cube-rescue R35
U 1 1 5D8A3695
P 8050 12800
F 0 "R35" V 8100 12900 50  0000 L CNN
F 1 "100K" V 8150 12700 50  0000 L CNN
F 2 "Resistor_SMD:R_0402_1005Metric" H 8050 12800 50  0001 C CNN
F 3 "~" H 8050 12800 50  0001 C CNN
	1    8050 12800
	1    0    0    -1  
$EndComp
Wire Wire Line
	8050 12500 8050 12700
$Comp
L beagle-cube-rescue:R_Small-Device-beagle-cube-rescue R36
U 1 1 5D8A36A0
P 8050 14800
F 0 "R36" V 8100 14900 50  0000 L CNN
F 1 "10k" V 8150 14800 50  0000 C CNN
F 2 "Resistor_SMD:R_0402_1005Metric" H 8050 14800 50  0001 C CNN
F 3 "~" H 8050 14800 50  0001 C CNN
	1    8050 14800
	1    0    0    -1  
$EndComp
Wire Wire Line
	8050 14900 8050 15000
Wire Wire Line
	8050 12900 8050 14000
$Comp
L beagle-cube-rescue:R_Small-Device-beagle-cube-rescue R37
U 1 1 5D8A36AC
P 8250 12800
F 0 "R37" V 8300 12900 50  0000 L CNN
F 1 "100K" V 8350 12700 50  0000 L CNN
F 2 "Resistor_SMD:R_0402_1005Metric" H 8250 12800 50  0001 C CNN
F 3 "~" H 8250 12800 50  0001 C CNN
	1    8250 12800
	1    0    0    -1  
$EndComp
Wire Wire Line
	8250 12500 8250 12700
$Comp
L beagle-cube-rescue:R_Small-Device-beagle-cube-rescue R38
U 1 1 5D8A36B7
P 8250 14800
F 0 "R38" V 8300 14900 50  0000 L CNN
F 1 "10k" V 8350 14800 50  0000 C CNN
F 2 "Resistor_SMD:R_0402_1005Metric" H 8250 14800 50  0001 C CNN
F 3 "~" H 8250 14800 50  0001 C CNN
	1    8250 14800
	1    0    0    -1  
$EndComp
Wire Wire Line
	8250 14900 8250 15000
Wire Wire Line
	8250 12900 8250 13900
$Comp
L beagle-cube-rescue:R_Small-Device-beagle-cube-rescue R39
U 1 1 5D8A36C3
P 8450 12800
F 0 "R39" V 8500 12900 50  0000 L CNN
F 1 "100K" V 8550 12700 50  0000 L CNN
F 2 "Resistor_SMD:R_0402_1005Metric" H 8450 12800 50  0001 C CNN
F 3 "~" H 8450 12800 50  0001 C CNN
	1    8450 12800
	1    0    0    -1  
$EndComp
Wire Wire Line
	8450 12500 8450 12700
$Comp
L beagle-cube-rescue:R_Small-Device-beagle-cube-rescue R40
U 1 1 5D8A36CE
P 8450 14800
F 0 "R40" V 8500 14900 50  0000 L CNN
F 1 "10k" V 8550 14800 50  0000 C CNN
F 2 "Resistor_SMD:R_0402_1005Metric" H 8450 14800 50  0001 C CNN
F 3 "~" H 8450 14800 50  0001 C CNN
	1    8450 14800
	1    0    0    -1  
$EndComp
Wire Wire Line
	8450 14900 8450 15000
Wire Wire Line
	8450 12900 8450 13800
$Comp
L beagle-cube-rescue:R_Small-Device-beagle-cube-rescue R41
U 1 1 5D8A36DA
P 8650 12800
F 0 "R41" V 8700 12900 50  0000 L CNN
F 1 "100K" V 8750 12700 50  0000 L CNN
F 2 "Resistor_SMD:R_0402_1005Metric" H 8650 12800 50  0001 C CNN
F 3 "~" H 8650 12800 50  0001 C CNN
	1    8650 12800
	1    0    0    -1  
$EndComp
Wire Wire Line
	8650 12500 8650 12700
$Comp
L beagle-cube-rescue:R_Small-Device-beagle-cube-rescue R42
U 1 1 5D8A36E5
P 8650 14800
F 0 "R42" V 8700 14900 50  0000 L CNN
F 1 "10k" V 8750 14800 50  0000 C CNN
F 2 "Resistor_SMD:R_0402_1005Metric" H 8650 14800 50  0001 C CNN
F 3 "~" H 8650 14800 50  0001 C CNN
	1    8650 14800
	1    0    0    -1  
$EndComp
Wire Wire Line
	8650 14900 8650 15000
Wire Wire Line
	8650 12900 8650 13700
Wire Wire Line
	6050 14500 7050 14500
Wire Wire Line
	7050 12900 7050 14500
Connection ~ 7050 14500
Wire Wire Line
	7050 14500 7050 14700
Wire Wire Line
	6050 14400 7250 14400
Connection ~ 7250 14400
Wire Wire Line
	7250 14400 7250 14700
Wire Wire Line
	6050 14300 7450 14300
Connection ~ 7450 14300
Wire Wire Line
	7450 14300 7450 14700
Wire Wire Line
	6050 14200 7650 14200
Connection ~ 7650 14200
Wire Wire Line
	7650 14200 7650 14700
Wire Wire Line
	6050 14100 7850 14100
Connection ~ 7850 14100
Wire Wire Line
	7850 14100 7850 14700
Wire Wire Line
	6050 14000 8050 14000
Connection ~ 8050 14000
Wire Wire Line
	8050 14000 8050 14700
Wire Wire Line
	6050 13900 8250 13900
Connection ~ 8250 13900
Wire Wire Line
	8250 13900 8250 14700
Wire Wire Line
	6050 13800 8450 13800
Connection ~ 8450 13800
Wire Wire Line
	8450 13800 8450 14700
Wire Wire Line
	6050 13700 8650 13700
Connection ~ 8650 13700
Wire Wire Line
	8650 13700 8650 14700
$Comp
L beagle-cube-rescue:R_Small-Device-beagle-cube-rescue R45
U 1 1 5D9C2D6F
P 9050 12800
F 0 "R45" V 9100 12900 50  0000 L CNN
F 1 "100K" V 9150 12700 50  0000 L CNN
F 2 "Resistor_SMD:R_0402_1005Metric" H 9050 12800 50  0001 C CNN
F 3 "~" H 9050 12800 50  0001 C CNN
	1    9050 12800
	1    0    0    -1  
$EndComp
Wire Wire Line
	9050 12500 9050 12700
$Comp
L beagle-cube-rescue:R_Small-Device-beagle-cube-rescue R46
U 1 1 5D9C2D7A
P 9050 14800
F 0 "R46" V 9100 14900 50  0000 L CNN
F 1 "10k" V 9150 14800 50  0000 C CNN
F 2 "Resistor_SMD:R_0402_1005Metric" H 9050 14800 50  0001 C CNN
F 3 "~" H 9050 14800 50  0001 C CNN
	1    9050 14800
	1    0    0    -1  
$EndComp
Wire Wire Line
	9050 14900 9050 15000
Wire Wire Line
	9050 12900 9050 13500
$Comp
L beagle-cube-rescue:R_Small-Device-beagle-cube-rescue R43
U 1 1 5D9FB3A1
P 8850 12800
F 0 "R43" V 8900 12900 50  0000 L CNN
F 1 "100K" V 8950 12700 50  0000 L CNN
F 2 "Resistor_SMD:R_0402_1005Metric" H 8850 12800 50  0001 C CNN
F 3 "~" H 8850 12800 50  0001 C CNN
	1    8850 12800
	1    0    0    -1  
$EndComp
Wire Wire Line
	8850 12500 8850 12700
$Comp
L beagle-cube-rescue:R_Small-Device-beagle-cube-rescue R44
U 1 1 5D9FB3AC
P 8850 14800
F 0 "R44" V 8900 14900 50  0000 L CNN
F 1 "10k" V 8950 14800 50  0000 C CNN
F 2 "Resistor_SMD:R_0402_1005Metric" H 8850 14800 50  0001 C CNN
F 3 "~" H 8850 14800 50  0001 C CNN
	1    8850 14800
	1    0    0    -1  
$EndComp
Wire Wire Line
	8850 14900 8850 15000
Wire Wire Line
	8850 12900 8850 13600
$Comp
L beagle-cube-rescue:R_Small-Device-beagle-cube-rescue R49
U 1 1 5DA3451E
P 9450 12800
F 0 "R49" V 9500 12900 50  0000 L CNN
F 1 "100K" V 9550 12700 50  0000 L CNN
F 2 "Resistor_SMD:R_0402_1005Metric" H 9450 12800 50  0001 C CNN
F 3 "~" H 9450 12800 50  0001 C CNN
	1    9450 12800
	1    0    0    -1  
$EndComp
Wire Wire Line
	9450 12500 9450 12700
$Comp
L beagle-cube-rescue:R_Small-Device-beagle-cube-rescue R50
U 1 1 5DA34529
P 9450 14800
F 0 "R50" V 9500 14900 50  0000 L CNN
F 1 "10k" V 9550 14800 50  0000 C CNN
F 2 "Resistor_SMD:R_0402_1005Metric" H 9450 14800 50  0001 C CNN
F 3 "~" H 9450 14800 50  0001 C CNN
	1    9450 14800
	1    0    0    -1  
$EndComp
Wire Wire Line
	9450 14900 9450 15000
Wire Wire Line
	9450 12900 9450 13300
$Comp
L beagle-cube-rescue:R_Small-Device-beagle-cube-rescue R47
U 1 1 5DA34535
P 9250 12800
F 0 "R47" V 9300 12900 50  0000 L CNN
F 1 "100K" V 9350 12700 50  0000 L CNN
F 2 "Resistor_SMD:R_0402_1005Metric" H 9250 12800 50  0001 C CNN
F 3 "~" H 9250 12800 50  0001 C CNN
	1    9250 12800
	1    0    0    -1  
$EndComp
Wire Wire Line
	9250 12500 9250 12700
$Comp
L beagle-cube-rescue:R_Small-Device-beagle-cube-rescue R48
U 1 1 5DA34540
P 9250 14800
F 0 "R48" V 9300 14900 50  0000 L CNN
F 1 "10k" V 9350 14800 50  0000 C CNN
F 2 "Resistor_SMD:R_0402_1005Metric" H 9250 14800 50  0001 C CNN
F 3 "~" H 9250 14800 50  0001 C CNN
	1    9250 14800
	1    0    0    -1  
$EndComp
Wire Wire Line
	9250 14900 9250 15000
Wire Wire Line
	9250 12900 9250 13400
$Comp
L beagle-cube-rescue:R_Small-Device-beagle-cube-rescue R53
U 1 1 5DA5263F
P 9850 12800
F 0 "R53" V 9900 12900 50  0000 L CNN
F 1 "100K" V 9950 12700 50  0000 L CNN
F 2 "Resistor_SMD:R_0402_1005Metric" H 9850 12800 50  0001 C CNN
F 3 "~" H 9850 12800 50  0001 C CNN
	1    9850 12800
	1    0    0    -1  
$EndComp
Wire Wire Line
	9850 12500 9850 12700
$Comp
L beagle-cube-rescue:R_Small-Device-beagle-cube-rescue R54
U 1 1 5DA5264A
P 9850 14800
F 0 "R54" V 9900 14900 50  0000 L CNN
F 1 "10k" V 9950 14800 50  0000 C CNN
F 2 "Resistor_SMD:R_0402_1005Metric" H 9850 14800 50  0001 C CNN
F 3 "~" H 9850 14800 50  0001 C CNN
	1    9850 14800
	1    0    0    -1  
$EndComp
Wire Wire Line
	9850 14900 9850 15000
Wire Wire Line
	9850 12900 9850 13100
$Comp
L beagle-cube-rescue:R_Small-Device-beagle-cube-rescue R51
U 1 1 5DA52656
P 9650 12800
F 0 "R51" V 9700 12900 50  0000 L CNN
F 1 "100K" V 9750 12700 50  0000 L CNN
F 2 "Resistor_SMD:R_0402_1005Metric" H 9650 12800 50  0001 C CNN
F 3 "~" H 9650 12800 50  0001 C CNN
	1    9650 12800
	1    0    0    -1  
$EndComp
Wire Wire Line
	9650 12500 9650 12700
$Comp
L beagle-cube-rescue:R_Small-Device-beagle-cube-rescue R52
U 1 1 5DA52661
P 9650 14800
F 0 "R52" V 9700 14900 50  0000 L CNN
F 1 "10k" V 9750 14800 50  0000 C CNN
F 2 "Resistor_SMD:R_0402_1005Metric" H 9650 14800 50  0001 C CNN
F 3 "~" H 9650 14800 50  0001 C CNN
	1    9650 14800
	1    0    0    -1  
$EndComp
Wire Wire Line
	9650 14900 9650 15000
Wire Wire Line
	9650 12900 9650 13200
$Comp
L beagle-cube-rescue:R_Small-Device-beagle-cube-rescue R55
U 1 1 5DA70FA4
P 10050 12800
F 0 "R55" V 10100 12900 50  0000 L CNN
F 1 "100K" V 10150 12700 50  0000 L CNN
F 2 "Resistor_SMD:R_0402_1005Metric" H 10050 12800 50  0001 C CNN
F 3 "~" H 10050 12800 50  0001 C CNN
	1    10050 12800
	1    0    0    -1  
$EndComp
Wire Wire Line
	10050 12500 10050 12700
$Comp
L beagle-cube-rescue:R_Small-Device-beagle-cube-rescue R56
U 1 1 5DA70FAF
P 10050 14800
F 0 "R56" V 10100 14900 50  0000 L CNN
F 1 "10k" V 10150 14800 50  0000 C CNN
F 2 "Resistor_SMD:R_0402_1005Metric" H 10050 14800 50  0001 C CNN
F 3 "~" H 10050 14800 50  0001 C CNN
	1    10050 14800
	1    0    0    -1  
$EndComp
Wire Wire Line
	10050 14900 10050 15000
Wire Wire Line
	10050 12900 10050 13000
Wire Wire Line
	6050 13600 8850 13600
Connection ~ 8850 13600
Wire Wire Line
	8850 13600 8850 14700
Wire Wire Line
	6050 13500 9050 13500
Connection ~ 9050 13500
Wire Wire Line
	9050 13500 9050 14700
Wire Wire Line
	6050 13400 9250 13400
Connection ~ 9250 13400
Wire Wire Line
	9250 13400 9250 14700
Wire Wire Line
	6050 13300 9450 13300
Connection ~ 9450 13300
Wire Wire Line
	9450 13300 9450 14700
Wire Wire Line
	6050 13200 9650 13200
Connection ~ 9650 13200
Wire Wire Line
	9650 13200 9650 14700
Wire Wire Line
	6050 13100 9850 13100
Connection ~ 9850 13100
Wire Wire Line
	9850 13100 9850 14700
Wire Wire Line
	6050 13000 10050 13000
Connection ~ 10050 13000
Wire Wire Line
	10050 13000 10050 14700
$Comp
L beagle-cube-rescue:GND-power-beagle-cube-rescue #PWR0118
U 1 1 5DC812E6
P 8650 15100
F 0 "#PWR0118" H 8650 14850 50  0001 C CNN
F 1 "GND" H 8655 14927 50  0000 C CNN
F 2 "" H 8650 15100 50  0001 C CNN
F 3 "" H 8650 15100 50  0001 C CNN
	1    8650 15100
	1    0    0    -1  
$EndComp
$Comp
L beagle-cube-rescue:+3V3-power-beagle-cube-rescue #PWR0119
U 1 1 5DC81746
P 8650 12400
F 0 "#PWR0119" H 8650 12250 50  0001 C CNN
F 1 "+3V3" H 8665 12573 50  0000 C CNN
F 2 "" H 8650 12400 50  0001 C CNN
F 3 "" H 8650 12400 50  0001 C CNN
	1    8650 12400
	1    0    0    -1  
$EndComp
Wire Wire Line
	7050 12500 7250 12500
Connection ~ 7250 12500
Wire Wire Line
	7250 12500 7450 12500
Connection ~ 7450 12500
Wire Wire Line
	7450 12500 7650 12500
Connection ~ 7650 12500
Wire Wire Line
	7650 12500 7850 12500
Connection ~ 7850 12500
Wire Wire Line
	7850 12500 8050 12500
Connection ~ 8050 12500
Wire Wire Line
	8050 12500 8250 12500
Connection ~ 8250 12500
Wire Wire Line
	8250 12500 8450 12500
Connection ~ 8450 12500
Wire Wire Line
	8450 12500 8650 12500
Connection ~ 8650 12500
Wire Wire Line
	8650 12500 8850 12500
Connection ~ 8850 12500
Wire Wire Line
	8850 12500 9050 12500
Connection ~ 9050 12500
Wire Wire Line
	9050 12500 9250 12500
Connection ~ 9250 12500
Wire Wire Line
	9250 12500 9450 12500
Connection ~ 9450 12500
Wire Wire Line
	9450 12500 9650 12500
Connection ~ 9650 12500
Wire Wire Line
	9650 12500 9850 12500
Connection ~ 9850 12500
Wire Wire Line
	9850 12500 10050 12500
Wire Wire Line
	8650 12400 8650 12500
Wire Wire Line
	7050 15000 7250 15000
Connection ~ 7250 15000
Wire Wire Line
	7250 15000 7450 15000
Connection ~ 7450 15000
Wire Wire Line
	7450 15000 7650 15000
Connection ~ 7650 15000
Wire Wire Line
	7650 15000 7850 15000
Connection ~ 7850 15000
Wire Wire Line
	7850 15000 8050 15000
Connection ~ 8050 15000
Wire Wire Line
	8050 15000 8250 15000
Connection ~ 8250 15000
Wire Wire Line
	8250 15000 8450 15000
Connection ~ 8450 15000
Wire Wire Line
	8450 15000 8650 15000
Connection ~ 8650 15000
Wire Wire Line
	8650 15000 8850 15000
Connection ~ 8850 15000
Wire Wire Line
	8850 15000 9050 15000
Connection ~ 9050 15000
Wire Wire Line
	9050 15000 9250 15000
Connection ~ 9250 15000
Wire Wire Line
	9250 15000 9450 15000
Connection ~ 9450 15000
Wire Wire Line
	9450 15000 9650 15000
Connection ~ 9650 15000
Wire Wire Line
	9650 15000 9850 15000
Connection ~ 9850 15000
Wire Wire Line
	9850 15000 10050 15000
Wire Wire Line
	8650 15100 8650 15000
Text Label 18100 1200 2    50   ~ 0
BOOT_0
Text Label 18100 1300 2    50   ~ 0
BOOT_1
Text Label 18100 1400 2    50   ~ 0
BOOT_2
Text Label 18100 1500 2    50   ~ 0
BOOT_3
Text Label 18100 1600 2    50   ~ 0
BOOT_4
Text Label 18100 1700 2    50   ~ 0
BOOT_5
Text Label 18100 1800 2    50   ~ 0
BOOT_6
Text Label 18100 1900 2    50   ~ 0
BOOT_7
Text Label 18100 2000 2    50   ~ 0
BOOT_8
Text Label 18100 2100 2    50   ~ 0
BOOT_9
Text Label 18100 2200 2    50   ~ 0
BOOT_10
Text Label 18100 2300 2    50   ~ 0
BOOT_11
Text Label 18100 2400 2    50   ~ 0
BOOT_12
Text Label 18100 2500 2    50   ~ 0
BOOT_13
Text Label 18100 2600 2    50   ~ 0
BOOT_14
Text Label 18100 2700 2    50   ~ 0
BOOT_15
Wire Wire Line
	17700 1200 18100 1200
Wire Wire Line
	18100 1300 17700 1300
Wire Wire Line
	17700 1400 18100 1400
Wire Wire Line
	18100 1500 17700 1500
Wire Wire Line
	17700 1600 18100 1600
Wire Wire Line
	18100 1700 17700 1700
Wire Wire Line
	17700 1800 18100 1800
Wire Wire Line
	18100 1900 17700 1900
Wire Wire Line
	17700 2000 18100 2000
Wire Wire Line
	18100 2100 17700 2100
Wire Wire Line
	17700 2200 18100 2200
Wire Wire Line
	18100 2300 17700 2300
Wire Wire Line
	17700 2400 18100 2400
Wire Wire Line
	18100 2500 17700 2500
Wire Wire Line
	17700 2600 18100 2600
Wire Wire Line
	18100 2700 17700 2700
$Comp
L beagle-cube:ISM330DLC U3
U 1 1 5D849BB6
P 6350 8000
F 0 "U3" H 6050 8500 50  0000 C CNN
F 1 "ISM330DLC" H 6700 8500 50  0000 C CNN
F 2 "Package_LGA:LGA-14_3x2.5mm_P0.5mm_LayoutBorder3x4y" H 6650 7700 50  0001 C CNN
F 3 "" H 6800 7700 50  0001 C CNN
	1    6350 8000
	1    0    0    -1  
$EndComp
$Comp
L beagle-cube:RM3100 U4
U 1 1 5D84AA25
P 8550 8150
F 0 "U4" H 8000 8950 50  0000 C CNN
F 1 "RM3100" H 8550 7900 50  0000 C CNN
F 2 "Package_DFN_QFN:QFN-28-1EP_4x4mm_P0.4mm_EP2.4x2.4mm" H 8550 8150 50  0001 C CNN
F 3 "" H 8550 8150 50  0001 C CNN
	1    8550 8150
	1    0    0    -1  
$EndComp
Wire Wire Line
	7850 8550 7750 8550
Wire Wire Line
	7750 8550 7750 8650
Wire Wire Line
	7750 8650 7850 8650
$Comp
L beagle-cube-rescue:GND-power-beagle-cube-rescue #PWR0105
U 1 1 5D878143
P 7750 8700
F 0 "#PWR0105" H 7750 8450 50  0001 C CNN
F 1 "GND" H 7755 8527 50  0000 C CNN
F 2 "" H 7750 8700 50  0001 C CNN
F 3 "" H 7750 8700 50  0001 C CNN
	1    7750 8700
	1    0    0    -1  
$EndComp
Wire Wire Line
	7750 8650 7750 8700
Connection ~ 7750 8650
$Comp
L beagle-cube-rescue:GND-power-beagle-cube-rescue #PWR0120
U 1 1 5D8A1066
P 8550 9100
F 0 "#PWR0120" H 8550 8850 50  0001 C CNN
F 1 "GND" H 8555 8927 50  0000 C CNN
F 2 "" H 8550 9100 50  0001 C CNN
F 3 "" H 8550 9100 50  0001 C CNN
	1    8550 9100
	1    0    0    -1  
$EndComp
Wire Wire Line
	8500 9000 8500 9050
Wire Wire Line
	8500 9050 8550 9050
Wire Wire Line
	8600 9050 8600 9000
Wire Wire Line
	8550 9050 8550 9100
Connection ~ 8550 9050
Wire Wire Line
	8550 9050 8600 9050
$Comp
L beagle-cube-rescue:GND-power-beagle-cube-rescue #PWR0121
U 1 1 5D8F20DE
P 6350 8700
F 0 "#PWR0121" H 6350 8450 50  0001 C CNN
F 1 "GND" H 6355 8527 50  0000 C CNN
F 2 "" H 6350 8700 50  0001 C CNN
F 3 "" H 6350 8700 50  0001 C CNN
	1    6350 8700
	1    0    0    -1  
$EndComp
Wire Wire Line
	6300 8600 6300 8650
Wire Wire Line
	6300 8650 6350 8650
Wire Wire Line
	6400 8650 6400 8600
Wire Wire Line
	6350 8650 6350 8700
Connection ~ 6350 8650
Wire Wire Line
	6350 8650 6400 8650
$Comp
L beagle-cube-rescue:+3V3-power-beagle-cube-rescue #PWR0122
U 1 1 5D993678
P 6350 7350
F 0 "#PWR0122" H 6350 7200 50  0001 C CNN
F 1 "+3V3" H 6365 7523 50  0000 C CNN
F 2 "" H 6350 7350 50  0001 C CNN
F 3 "" H 6350 7350 50  0001 C CNN
	1    6350 7350
	1    0    0    -1  
$EndComp
Wire Wire Line
	6300 7450 6300 7400
Wire Wire Line
	6300 7400 6350 7400
Wire Wire Line
	6400 7400 6400 7450
Wire Wire Line
	6350 7350 6350 7400
Connection ~ 6350 7400
Wire Wire Line
	6350 7400 6400 7400
$Comp
L beagle-cube-rescue:+3V3-power-beagle-cube-rescue #PWR0123
U 1 1 5D9E9256
P 8550 7200
F 0 "#PWR0123" H 8550 7050 50  0001 C CNN
F 1 "+3V3" H 8565 7373 50  0000 C CNN
F 2 "" H 8550 7200 50  0001 C CNN
F 3 "" H 8550 7200 50  0001 C CNN
	1    8550 7200
	1    0    0    -1  
$EndComp
Wire Wire Line
	8450 7300 8450 7250
Wire Wire Line
	8450 7250 8550 7250
Wire Wire Line
	8650 7250 8650 7300
Wire Wire Line
	8550 7300 8550 7250
Connection ~ 8550 7250
Wire Wire Line
	8550 7250 8650 7250
Wire Wire Line
	8550 7200 8550 7250
Text Label 5500 8050 0    50   ~ 0
I2C1_SDA
Text Label 5500 8150 0    50   ~ 0
I2C1_SCL
Text Label 7450 7750 0    50   ~ 0
I2C1_SDA
Text Label 7450 7850 0    50   ~ 0
I2C1_SCL
Wire Wire Line
	5500 8050 5900 8050
Wire Wire Line
	5900 8150 5500 8150
Wire Wire Line
	7450 7750 7850 7750
Wire Wire Line
	7850 7850 7450 7850
NoConn ~ 6800 7800
NoConn ~ 6800 7900
$Comp
L beagle-cube-rescue:GND-power-beagle-cube-rescue #PWR0124
U 1 1 5D9F1B76
P 6900 8250
F 0 "#PWR0124" H 6900 8000 50  0001 C CNN
F 1 "GND" H 6905 8077 50  0000 C CNN
F 2 "" H 6900 8250 50  0001 C CNN
F 3 "" H 6900 8250 50  0001 C CNN
	1    6900 8250
	1    0    0    -1  
$EndComp
Wire Wire Line
	6800 8050 6900 8050
Wire Wire Line
	6900 8050 6900 8150
Wire Wire Line
	6800 8150 6900 8150
Connection ~ 6900 8150
Wire Wire Line
	6900 8150 6900 8250
Wire Wire Line
	13450 4500 13000 4500
$Comp
L beagle-cube-rescue:TestPoint-Connector-beagle-cube-rescue TP2
U 1 1 5E2D0A29
P 15250 4400
F 0 "TP2" V 15250 4650 50  0000 C CNN
F 1 "VDD_CORE" V 15354 4472 50  0000 C CNN
F 2 "TestPoint:TestPoint_Pad_D1.0mm" H 15450 4400 50  0001 C CNN
F 3 "~" H 15450 4400 50  0001 C CNN
	1    15250 4400
	0    -1   -1   0   
$EndComp
$Comp
L beagle-cube-rescue:TestPoint-Connector-beagle-cube-rescue TP3
U 1 1 5E2D3A71
P 15250 4600
F 0 "TP3" V 15250 4850 50  0000 C CNN
F 1 "VDD_MPU" V 15354 4672 50  0000 C CNN
F 2 "TestPoint:TestPoint_Pad_D1.0mm" H 15450 4600 50  0001 C CNN
F 3 "~" H 15450 4600 50  0001 C CNN
	1    15250 4600
	0    -1   -1   0   
$EndComp
$Comp
L beagle-cube-rescue:TestPoint-Connector-beagle-cube-rescue TP4
U 1 1 5E2D53DA
P 15250 4800
F 0 "TP4" V 15250 5050 50  0000 C CNN
F 1 "VDDS_PLL" V 15350 4850 50  0000 C CNN
F 2 "TestPoint:TestPoint_Pad_D1.0mm" H 15450 4800 50  0001 C CNN
F 3 "~" H 15450 4800 50  0001 C CNN
	1    15250 4800
	0    -1   -1   0   
$EndComp
$Comp
L beagle-cube-rescue:TestPoint-Connector-beagle-cube-rescue TP1
U 1 1 5E2CDD69
P 15250 4200
F 0 "TP1" V 15250 4450 50  0000 C CNN
F 1 "VDDS_DDR" V 15354 4272 50  0000 C CNN
F 2 "TestPoint:TestPoint_Pad_D1.0mm" H 15450 4200 50  0001 C CNN
F 3 "~" H 15450 4200 50  0001 C CNN
	1    15250 4200
	0    -1   -1   0   
$EndComp
Wire Wire Line
	15250 4200 15400 4200
Wire Wire Line
	15400 4400 15250 4400
Wire Wire Line
	15250 4600 15400 4600
Wire Wire Line
	15400 4800 15250 4800
NoConn ~ 17600 5200
NoConn ~ 17600 5300
NoConn ~ 17600 5400
NoConn ~ 15400 5200
NoConn ~ 15400 5400
$Sheet
S 11250 8400 550  2100
U 5E77A61C
F0 "eth0" 50
F1 "ethernet.sch" 50
F2 "TX_CLK" I R 11800 8500 50 
F3 "TXD0" I R 11800 8600 50 
F4 "TXD1" I R 11800 8700 50 
F5 "TXD2" I R 11800 8800 50 
F6 "TXD3" I R 11800 8900 50 
F7 "TX_EN" I R 11800 9000 50 
F8 "CRS" I R 11800 9100 50 
F9 "COL" I R 11800 9200 50 
F10 "RX_CLK" I R 11800 9400 50 
F11 "RXD0" I R 11800 9500 50 
F12 "RXD1" I R 11800 9600 50 
F13 "RXD2" I R 11800 9700 50 
F14 "RXD3" I R 11800 9800 50 
F15 "RX_ER" I R 11800 9900 50 
F16 "RX_DV" I R 11800 10000 50 
F17 "MDC" I R 11800 10300 50 
F18 "MDIO" I R 11800 10400 50 
$EndSheet
Wire Wire Line
	15300 2300 15150 2300
Wire Wire Line
	15150 2200 15300 2200
Wire Wire Line
	15300 1800 15150 1800
Wire Wire Line
	15150 2900 15300 2900
Wire Wire Line
	15300 2600 15150 2600
Wire Wire Line
	15150 1300 15300 1300
Wire Wire Line
	15150 1400 15300 1400
Wire Wire Line
	10300 2800 10150 2800
NoConn ~ 17700 2900
NoConn ~ 17700 3000
NoConn ~ 17700 3100
NoConn ~ 17700 3200
Wire Wire Line
	4100 5400 4200 5400
Wire Wire Line
	4200 5400 4200 5300
Connection ~ 4200 4500
Wire Wire Line
	4100 4900 4200 4900
Connection ~ 4200 4900
Wire Wire Line
	4200 4900 4200 4500
Wire Wire Line
	4100 5000 4200 5000
Connection ~ 4200 5000
Wire Wire Line
	4200 5000 4200 4900
Wire Wire Line
	4100 5100 4200 5100
Connection ~ 4200 5100
Wire Wire Line
	4200 5100 4200 5000
Wire Wire Line
	4100 5200 4200 5200
Connection ~ 4200 5200
Wire Wire Line
	4200 5200 4200 5100
Wire Wire Line
	4100 5300 4200 5300
Connection ~ 4200 5300
Wire Wire Line
	4200 5300 4200 5200
Wire Wire Line
	4100 1900 4200 1900
Wire Wire Line
	4200 1900 4200 2000
Wire Wire Line
	4200 2200 4100 2200
Wire Wire Line
	4100 2100 4200 2100
Connection ~ 4200 2100
Wire Wire Line
	4200 2100 4200 2200
Wire Wire Line
	4100 2000 4200 2000
Connection ~ 4200 2000
Wire Wire Line
	4200 2000 4200 2100
Wire Wire Line
	4100 2600 4200 2600
Wire Wire Line
	4200 2600 4200 2700
Wire Wire Line
	4200 2700 4100 2700
Wire Wire Line
	4100 3100 4200 3100
Wire Wire Line
	4200 3100 4200 3200
Wire Wire Line
	4200 3200 4100 3200
Wire Wire Line
	1300 2400 1200 2400
Wire Wire Line
	1200 2400 1200 2500
Wire Wire Line
	1200 2600 1300 2600
Wire Wire Line
	1300 2500 1200 2500
Connection ~ 1200 2500
Wire Wire Line
	1200 2500 1200 2600
Wire Wire Line
	1300 2800 1200 2800
Wire Wire Line
	1200 2800 1200 2600
Connection ~ 1200 2600
Text Label 4200 1200 0    50   ~ 0
SYS_VOUT
Text Label 4200 1900 0    50   ~ 0
VDD1_3P3V
Text Label 13200 1900 2    50   ~ 0
LED0
Text Label 13200 2000 2    50   ~ 0
LED1
Text Label 13200 2100 2    50   ~ 0
LED2
Text Label 13200 2200 2    50   ~ 0
LED3
Wire Wire Line
	13000 1900 13200 1900
Wire Wire Line
	13200 2000 13000 2000
Wire Wire Line
	13000 2100 13200 2100
Wire Wire Line
	13200 2200 13000 2200
Text Notes 4300 5400 1    50   ~ 0
We use 3v3 for all I/O
$Comp
L beagle-cube-rescue:DS3231MZ-Timer_RTC-beagle-cube-rescue U2
U 1 1 5DFCADC5
P 3400 14500
F 0 "U2" H 3750 14850 50  0000 C CNN
F 1 "DS3231MZ" H 3400 14500 50  0000 C CNN
F 2 "Package_SO:SOIC-8_3.9x4.9mm_P1.27mm" H 3400 14000 50  0001 C CNN
F 3 "http://datasheets.maximintegrated.com/en/ds/DS3231M.pdf" H 3400 13900 50  0001 C CNN
	1    3400 14500
	1    0    0    -1  
$EndComp
$Comp
L beagle-cube-rescue:D_Schottky-Device-beagle-cube-rescue D7
U 1 1 5E00E22F
P 1550 14150
F 0 "D7" H 1550 13934 50  0000 C CNN
F 1 "DB2J314" H 1550 14025 50  0000 C CNN
F 2 "Diode_SMD:D_SOD-323" H 1550 14150 50  0001 C CNN
F 3 "~" H 1550 14150 50  0001 C CNN
	1    1550 14150
	-1   0    0    1   
$EndComp
$Comp
L beagle-cube-rescue:R_Small-Device-beagle-cube-rescue R57
U 1 1 5E014063
P 1850 14300
F 0 "R57" H 1909 14346 50  0000 L CNN
F 1 "750" H 1909 14255 50  0000 L CNN
F 2 "Resistor_SMD:R_0603_1608Metric" H 1850 14300 50  0001 C CNN
F 3 "~" H 1850 14300 50  0001 C CNN
	1    1850 14300
	1    0    0    -1  
$EndComp
Wire Wire Line
	1850 14400 1850 14450
$Comp
L beagle-cube-rescue:GND-power-beagle-cube-rescue #PWR0125
U 1 1 5E09051F
P 1850 14800
F 0 "#PWR0125" H 1850 14550 50  0001 C CNN
F 1 "GND" H 1855 14627 50  0000 C CNN
F 2 "" H 1850 14800 50  0001 C CNN
F 3 "" H 1850 14800 50  0001 C CNN
	1    1850 14800
	1    0    0    -1  
$EndComp
Wire Wire Line
	1850 14750 1850 14800
Wire Wire Line
	1850 14150 1850 14200
Wire Wire Line
	1250 14150 1400 14150
Wire Wire Line
	1250 14150 1250 14500
Wire Wire Line
	1700 14150 1850 14150
Connection ~ 1250 14150
Wire Wire Line
	1250 14050 1250 14150
$Comp
L beagle-cube-rescue:+BATT-power-beagle-cube-rescue #PWR0126
U 1 1 5E2436B7
P 1850 14050
F 0 "#PWR0126" H 1850 13900 50  0001 C CNN
F 1 "+BATT" H 1865 14223 50  0000 C CNN
F 2 "" H 1850 14050 50  0001 C CNN
F 3 "" H 1850 14050 50  0001 C CNN
	1    1850 14050
	1    0    0    -1  
$EndComp
Wire Wire Line
	1850 14050 1850 14150
Connection ~ 1850 14150
$Comp
L beagle-cube-rescue:+BATT-power-beagle-cube-rescue #PWR0127
U 1 1 5E284E42
P 3200 14000
F 0 "#PWR0127" H 3200 13850 50  0001 C CNN
F 1 "+BATT" H 3215 14173 50  0000 C CNN
F 2 "" H 3200 14000 50  0001 C CNN
F 3 "" H 3200 14000 50  0001 C CNN
	1    3200 14000
	1    0    0    -1  
$EndComp
Wire Wire Line
	3400 14050 3500 14050
Wire Wire Line
	3500 14050 3500 14000
Wire Wire Line
	3300 14100 3300 14050
Wire Wire Line
	3300 14050 3200 14050
Wire Wire Line
	3200 14050 3200 14000
NoConn ~ 3900 14300
Text Label 4250 14600 2    50   ~ 0
RTC_INT
Wire Wire Line
	3900 14600 4250 14600
Text Label 2500 14300 0    50   ~ 0
I2C1_SDA
Text Label 2500 14400 0    50   ~ 0
I2C1_SCL
Wire Wire Line
	2500 14300 2900 14300
Wire Wire Line
	2900 14400 2500 14400
NoConn ~ 2900 14700
$Comp
L beagle-cube-rescue:R_Small-Device-beagle-cube-rescue R3
U 1 1 5DAB3C57
P 1350 11150
F 0 "R3" H 1409 11196 50  0000 L CNN
F 1 "10K" H 1409 11105 50  0000 L CNN
F 2 "Resistor_SMD:R_0402_1005Metric" H 1350 11150 50  0001 C CNN
F 3 "~" H 1350 11150 50  0001 C CNN
	1    1350 11150
	1    0    0    -1  
$EndComp
$Comp
L beagle-cube-rescue:R_Small-Device-beagle-cube-rescue R4
U 1 1 5DAB47B1
P 1650 11150
F 0 "R4" H 1709 11196 50  0000 L CNN
F 1 "10K" H 1709 11105 50  0000 L CNN
F 2 "Resistor_SMD:R_0402_1005Metric" H 1650 11150 50  0001 C CNN
F 3 "~" H 1650 11150 50  0001 C CNN
	1    1650 11150
	1    0    0    -1  
$EndComp
$Comp
L beagle-cube-rescue:R_Small-Device-beagle-cube-rescue R5
U 1 1 5DAB4CBB
P 1950 11150
F 0 "R5" H 2009 11196 50  0000 L CNN
F 1 "10K" H 2009 11105 50  0000 L CNN
F 2 "Resistor_SMD:R_0402_1005Metric" H 1950 11150 50  0001 C CNN
F 3 "~" H 1950 11150 50  0001 C CNN
	1    1950 11150
	1    0    0    -1  
$EndComp
$Comp
L beagle-cube-rescue:R_Small-Device-beagle-cube-rescue R6
U 1 1 5DB34F31
P 2450 11150
F 0 "R6" H 2509 11196 50  0000 L CNN
F 1 "10K" H 2509 11105 50  0000 L CNN
F 2 "Resistor_SMD:R_0402_1005Metric" H 2450 11150 50  0001 C CNN
F 3 "~" H 2450 11150 50  0001 C CNN
	1    2450 11150
	1    0    0    -1  
$EndComp
$Comp
L beagle-cube-rescue:R_Small-Device-beagle-cube-rescue R7
U 1 1 5DB3529F
P 2750 11150
F 0 "R7" H 2809 11196 50  0000 L CNN
F 1 "10K" H 2809 11105 50  0000 L CNN
F 2 "Resistor_SMD:R_0402_1005Metric" H 2750 11150 50  0001 C CNN
F 3 "~" H 2750 11150 50  0001 C CNN
	1    2750 11150
	1    0    0    -1  
$EndComp
Wire Wire Line
	1050 10650 1350 10650
Wire Wire Line
	2450 11050 2450 10650
Wire Wire Line
	1950 11050 1950 10650
Connection ~ 1950 10650
Wire Wire Line
	1650 11050 1650 10650
Connection ~ 1650 10650
Wire Wire Line
	1650 10650 1950 10650
Wire Wire Line
	1350 11050 1350 10650
Connection ~ 1350 10650
Wire Wire Line
	1350 10650 1650 10650
Wire Wire Line
	1350 11250 1350 11400
Wire Wire Line
	1650 11250 1650 11500
Wire Wire Line
	1950 11250 1950 11600
Wire Wire Line
	1950 10650 2200 10650
Wire Wire Line
	2200 10650 2200 11700
Wire Wire Line
	2450 11800 2450 11250
Connection ~ 2200 10650
Wire Wire Line
	2750 11050 2750 10650
Wire Wire Line
	2750 11250 2750 12000
Wire Wire Line
	1350 11400 3150 11400
Wire Wire Line
	1650 11500 3150 11500
Wire Wire Line
	1950 11600 3150 11600
Wire Wire Line
	2200 11700 3150 11700
$Comp
L beagle-cube-rescue:R_Small-Device-beagle-cube-rescue R8
U 1 1 5E3F7E18
P 3050 11150
F 0 "R8" H 3109 11196 50  0000 L CNN
F 1 "10K" H 3109 11105 50  0000 L CNN
F 2 "Resistor_SMD:R_0402_1005Metric" H 3050 11150 50  0001 C CNN
F 3 "~" H 3050 11150 50  0001 C CNN
	1    3050 11150
	1    0    0    -1  
$EndComp
Wire Wire Line
	3050 11050 3050 10650
Wire Wire Line
	3050 11250 3050 12100
Connection ~ 2450 10650
Wire Wire Line
	2450 11800 3150 11800
Connection ~ 2750 10650
Wire Wire Line
	2750 12000 3150 12000
Wire Wire Line
	3050 12100 3150 12100
Wire Wire Line
	2450 10650 2750 10650
Wire Wire Line
	2200 10650 2450 10650
Wire Wire Line
	2750 10650 3050 10650
Connection ~ 1350 11400
Wire Wire Line
	1000 11500 1650 11500
Connection ~ 1650 11500
Wire Wire Line
	1000 11600 1950 11600
Connection ~ 1950 11600
Wire Wire Line
	1000 11800 2450 11800
Connection ~ 2450 11800
Connection ~ 2750 12000
Wire Wire Line
	1000 12100 3050 12100
Connection ~ 3050 12100
Wire Wire Line
	1000 12000 2750 12000
$Comp
L beagle-cube-rescue:GND-power-beagle-cube-rescue #PWR0128
U 1 1 5E7B34C1
P 2200 12250
F 0 "#PWR0128" H 2200 12000 50  0001 C CNN
F 1 "GND" H 2205 12077 50  0000 C CNN
F 2 "" H 2200 12250 50  0001 C CNN
F 3 "" H 2200 12250 50  0001 C CNN
	1    2200 12250
	1    0    0    -1  
$EndComp
Wire Wire Line
	3150 11900 2200 11900
Wire Wire Line
	2200 11900 2200 12250
$Comp
L beagle-cube-rescue:Conn_01x04-Connector_Generic-beagle-cube-rescue J6
U 1 1 5D9C3268
P 15500 11750
F 0 "J6" H 15580 11742 50  0000 L CNN
F 1 "CAN1" H 15580 11651 50  0000 L CNN
F 2 "footprints:Molex_Pico-Lock_504050-0491_1x04-1MP_P1.50mm_Horizontal" H 15500 11750 50  0001 C CNN
F 3 "~" H 15500 11750 50  0001 C CNN
	1    15500 11750
	1    0    0    -1  
$EndComp
Wire Wire Line
	15000 11750 15300 11750
Wire Wire Line
	15300 11850 15000 11850
Wire Wire Line
	15300 11650 15200 11650
Wire Wire Line
	15200 11650 15200 11950
Wire Wire Line
	15200 11950 15300 11950
$Comp
L beagle-cube-rescue:GND-power-beagle-cube-rescue #PWR0131
U 1 1 5DAA83DB
P 15200 12050
F 0 "#PWR0131" H 15200 11800 50  0001 C CNN
F 1 "GND" H 15205 11877 50  0000 C CNN
F 2 "" H 15200 12050 50  0001 C CNN
F 3 "" H 15200 12050 50  0001 C CNN
	1    15200 12050
	1    0    0    -1  
$EndComp
Wire Wire Line
	15200 11950 15200 12050
Connection ~ 15200 11950
$Comp
L beagle-cube-rescue:Conn_01x04-Connector_Generic-beagle-cube-rescue J7
U 1 1 5DB3F543
P 15500 12600
F 0 "J7" H 15580 12592 50  0000 L CNN
F 1 "CAN0" H 15580 12501 50  0000 L CNN
F 2 "footprints:Molex_Pico-Lock_504050-0491_1x04-1MP_P1.50mm_Horizontal" H 15500 12600 50  0001 C CNN
F 3 "~" H 15500 12600 50  0001 C CNN
	1    15500 12600
	1    0    0    -1  
$EndComp
Wire Wire Line
	15000 12600 15300 12600
Wire Wire Line
	15300 12700 15000 12700
Wire Wire Line
	15300 12500 15200 12500
Wire Wire Line
	15200 12500 15200 12800
Wire Wire Line
	15200 12800 15300 12800
$Comp
L beagle-cube-rescue:GND-power-beagle-cube-rescue #PWR0132
U 1 1 5DB3F552
P 15200 12900
F 0 "#PWR0132" H 15200 12650 50  0001 C CNN
F 1 "GND" H 15205 12727 50  0000 C CNN
F 2 "" H 15200 12900 50  0001 C CNN
F 3 "" H 15200 12900 50  0001 C CNN
	1    15200 12900
	1    0    0    -1  
$EndComp
Wire Wire Line
	15200 12800 15200 12900
Connection ~ 15200 12800
$Comp
L beagle-cube-rescue:Conn_01x04-Connector_Generic-beagle-cube-rescue J2
U 1 1 5DB8DAE8
P 8550 1300
F 0 "J2" H 8468 875 50  0000 C CNN
F 1 "UART0" H 8468 966 50  0000 C CNN
F 2 "Connector_Molex:Molex_PicoBlade_53261-0371_1x03-1MP_P1.25mm_Horizontal" H 8550 1300 50  0001 C CNN
F 3 "~" H 8550 1300 50  0001 C CNN
	1    8550 1300
	-1   0    0    1   
$EndComp
Wire Wire Line
	8750 1100 8800 1100
Wire Wire Line
	8800 1100 8800 1400
Wire Wire Line
	8800 1400 8750 1400
$Comp
L beagle-cube-rescue:GND-power-beagle-cube-rescue #PWR0133
U 1 1 5DC7A60E
P 8850 1400
F 0 "#PWR0133" H 8850 1150 50  0001 C CNN
F 1 "GND" H 8855 1227 50  0000 C CNN
F 2 "" H 8850 1400 50  0001 C CNN
F 3 "" H 8850 1400 50  0001 C CNN
	1    8850 1400
	0    -1   -1   0   
$EndComp
Wire Wire Line
	9650 1800 10300 1800
Wire Wire Line
	9650 1900 10300 1900
NoConn ~ 15150 2300
NoConn ~ 15150 2200
NoConn ~ 15150 1800
NoConn ~ 15150 2900
NoConn ~ 15150 2600
NoConn ~ 15150 1300
NoConn ~ 15150 1400
NoConn ~ 10150 2800
NoConn ~ 11800 10400
NoConn ~ 11800 10300
NoConn ~ 11800 10000
NoConn ~ 11800 9900
NoConn ~ 11800 9800
NoConn ~ 11800 9700
NoConn ~ 11800 9600
NoConn ~ 11800 9500
NoConn ~ 11800 9400
NoConn ~ 11800 9200
NoConn ~ 11800 9100
NoConn ~ 11800 9000
NoConn ~ 11800 8900
NoConn ~ 11800 8800
NoConn ~ 11800 8700
NoConn ~ 11800 8600
NoConn ~ 11800 8500
$Comp
L beagle-cube-rescue:Conn_01x04-Connector_Generic-beagle-cube-rescue J9
U 1 1 5DA0ED2B
P 13550 10200
F 0 "J9" H 13630 10192 50  0000 L CNN
F 1 "Conn_01x04" H 13630 10101 50  0000 L CNN
F 2 "footprints:Molex_Pico-Lock_504050-0491_1x04-1MP_P1.50mm_Horizontal" H 13550 10200 50  0001 C CNN
F 3 "~" H 13550 10200 50  0001 C CNN
	1    13550 10200
	-1   0    0    1   
$EndComp
$Comp
L beagle-cube-rescue:Conn_01x04-Connector_Generic-beagle-cube-rescue J8
U 1 1 5DA0F911
P 8550 1800
F 0 "J8" H 8630 1792 50  0000 L CNN
F 1 "UART1" H 8630 1701 50  0000 L CNN
F 2 "footprints:Molex_Pico-Lock_504050-0491_1x04-1MP_P1.50mm_Horizontal" H 8550 1800 50  0001 C CNN
F 3 "~" H 8550 1800 50  0001 C CNN
	1    8550 1800
	-1   0    0    -1  
$EndComp
Text Label 9850 2000 0    50   ~ 0
CAN0_RXD
Text Label 9850 2100 0    50   ~ 0
CAN0_TXD
Wire Wire Line
	9850 2000 10300 2000
Wire Wire Line
	10300 2100 9850 2100
Text Label 9850 1400 0    50   ~ 0
CAN1_RXD
Text Label 9850 1500 0    50   ~ 0
CAN1_TXD
Wire Wire Line
	9850 1400 10300 1400
Wire Wire Line
	10300 1500 9850 1500
Wire Wire Line
	8750 1200 10300 1200
Wire Wire Line
	8750 1300 10300 1300
Text Label 13850 12600 0    50   ~ 0
CAN0_RXD
Text Label 13850 12700 0    50   ~ 0
CAN0_TXD
Wire Wire Line
	13850 12600 14300 12600
Wire Wire Line
	14300 12700 13850 12700
Text Label 13850 11750 0    50   ~ 0
CAN1_RXD
Text Label 13850 11850 0    50   ~ 0
CAN1_TXD
Wire Wire Line
	13850 11750 14300 11750
Wire Wire Line
	14300 11850 13850 11850
Wire Wire Line
	8800 1400 8850 1400
Connection ~ 8800 1400
Text Label 14850 2500 0    50   ~ 0
UART3_RXD
Text Label 14850 2400 0    50   ~ 0
UART3_TXD
Wire Wire Line
	14850 2400 15300 2400
Wire Wire Line
	14850 2500 15300 2500
$Comp
L Connector:USB_B_Micro J10
U 1 1 5DB4E119
P 14350 7450
F 0 "J10" H 14407 7917 50  0000 C CNN
F 1 "USB_B_Micro" H 14407 7826 50  0000 C CNN
F 2 "Connector_USB:USB_Micro-B_Molex_47346-0001" H 14500 7400 50  0001 C CNN
F 3 "~" H 14500 7400 50  0001 C CNN
	1    14350 7450
	1    0    0    -1  
$EndComp
Text Label 15150 7550 2    50   ~ 0
USB0_D_N
Text Label 15150 7450 2    50   ~ 0
USB0_D_P
Text Label 15150 7250 2    50   ~ 0
USB0_VBUS
Text Label 15150 7650 2    50   ~ 0
USB0_ID
Wire Wire Line
	14650 7550 15150 7550
Wire Wire Line
	15150 7450 14650 7450
Wire Wire Line
	14650 7250 15150 7250
Wire Wire Line
	15150 7650 14650 7650
$Comp
L beagle-cube-rescue:Earth-power-beagle-cube-rescue #PWR0134
U 1 1 5DCDA089
P 14200 7950
F 0 "#PWR0134" H 14200 7700 50  0001 C CNN
F 1 "Earth" H 14200 7800 50  0001 C CNN
F 2 "" H 14200 7950 50  0001 C CNN
F 3 "~" H 14200 7950 50  0001 C CNN
	1    14200 7950
	1    0    0    -1  
$EndComp
$Comp
L beagle-cube-rescue:GND-power-beagle-cube-rescue #PWR0135
U 1 1 5DCDB0B5
P 14400 7950
F 0 "#PWR0135" H 14400 7700 50  0001 C CNN
F 1 "GND" H 14405 7777 50  0000 C CNN
F 2 "" H 14400 7950 50  0001 C CNN
F 3 "" H 14400 7950 50  0001 C CNN
	1    14400 7950
	1    0    0    -1  
$EndComp
Wire Wire Line
	14250 7850 14250 7900
Wire Wire Line
	14250 7900 14200 7900
Wire Wire Line
	14200 7900 14200 7950
Wire Wire Line
	14350 7850 14350 7900
Wire Wire Line
	14350 7900 14400 7900
Wire Wire Line
	14400 7900 14400 7950
$Comp
L Mechanical:MountingHole_Pad H1
U 1 1 5DACE5FF
P 12600 14650
F 0 "H1" H 12700 14699 50  0000 L CNN
F 1 "MH" H 12700 14608 50  0000 L CNN
F 2 "MountingHole:MountingHole_2.7mm_M2.5_Pad_Via" H 12600 14650 50  0001 C CNN
F 3 "~" H 12600 14650 50  0001 C CNN
	1    12600 14650
	1    0    0    -1  
$EndComp
$Comp
L Mechanical:MountingHole_Pad H2
U 1 1 5DAD1564
P 12950 14650
F 0 "H2" H 13050 14699 50  0000 L CNN
F 1 "MH" H 13050 14608 50  0000 L CNN
F 2 "MountingHole:MountingHole_2.7mm_M2.5_Pad_Via" H 12950 14650 50  0001 C CNN
F 3 "~" H 12950 14650 50  0001 C CNN
	1    12950 14650
	1    0    0    -1  
$EndComp
$Comp
L Mechanical:MountingHole_Pad H3
U 1 1 5DAD18D2
P 13300 14650
F 0 "H3" H 13400 14699 50  0000 L CNN
F 1 "MH" H 13400 14608 50  0000 L CNN
F 2 "MountingHole:MountingHole_2.7mm_M2.5_Pad_Via" H 13300 14650 50  0001 C CNN
F 3 "~" H 13300 14650 50  0001 C CNN
	1    13300 14650
	1    0    0    -1  
$EndComp
$Comp
L Mechanical:MountingHole_Pad H4
U 1 1 5DAD1C28
P 13650 14650
F 0 "H4" H 13750 14699 50  0000 L CNN
F 1 "MH" H 13750 14608 50  0000 L CNN
F 2 "MountingHole:MountingHole_2.7mm_M2.5_Pad_Via" H 13650 14650 50  0001 C CNN
F 3 "~" H 13650 14650 50  0001 C CNN
	1    13650 14650
	1    0    0    -1  
$EndComp
$Comp
L beagle-cube-rescue:Earth-power-beagle-cube-rescue #PWR0136
U 1 1 5DAD207B
P 12600 14800
F 0 "#PWR0136" H 12600 14550 50  0001 C CNN
F 1 "Earth" H 12600 14650 50  0001 C CNN
F 2 "" H 12600 14800 50  0001 C CNN
F 3 "~" H 12600 14800 50  0001 C CNN
	1    12600 14800
	1    0    0    -1  
$EndComp
Wire Wire Line
	12600 14750 12600 14800
$Comp
L beagle-cube-rescue:Earth-power-beagle-cube-rescue #PWR0137
U 1 1 5DB23FE9
P 12950 14800
F 0 "#PWR0137" H 12950 14550 50  0001 C CNN
F 1 "Earth" H 12950 14650 50  0001 C CNN
F 2 "" H 12950 14800 50  0001 C CNN
F 3 "~" H 12950 14800 50  0001 C CNN
	1    12950 14800
	1    0    0    -1  
$EndComp
Wire Wire Line
	12950 14750 12950 14800
$Comp
L beagle-cube-rescue:Earth-power-beagle-cube-rescue #PWR0138
U 1 1 5DB77214
P 13300 14800
F 0 "#PWR0138" H 13300 14550 50  0001 C CNN
F 1 "Earth" H 13300 14650 50  0001 C CNN
F 2 "" H 13300 14800 50  0001 C CNN
F 3 "~" H 13300 14800 50  0001 C CNN
	1    13300 14800
	1    0    0    -1  
$EndComp
Wire Wire Line
	13300 14750 13300 14800
$Comp
L beagle-cube-rescue:Earth-power-beagle-cube-rescue #PWR0139
U 1 1 5DC18540
P 13650 14800
F 0 "#PWR0139" H 13650 14550 50  0001 C CNN
F 1 "Earth" H 13650 14650 50  0001 C CNN
F 2 "" H 13650 14800 50  0001 C CNN
F 3 "~" H 13650 14800 50  0001 C CNN
	1    13650 14800
	1    0    0    -1  
$EndComp
Wire Wire Line
	13650 14750 13650 14800
$Comp
L Device:L_Small L1
U 1 1 5DE5F5AE
P 9650 7650
F 0 "L1" H 9698 7696 50  0000 L CNN
F 1 "L_Small" H 9698 7605 50  0000 L CNN
F 2 "footprints:RM3100-Z" H 9650 7650 50  0001 C CNN
F 3 "~" H 9650 7650 50  0001 C CNN
	1    9650 7650
	1    0    0    -1  
$EndComp
$Comp
L Device:R_Small R58
U 1 1 5DE61E80
P 9350 7500
F 0 "R58" V 9250 7400 50  0000 C CNN
F 1 "121R" V 9250 7700 50  0000 C CNN
F 2 "Resistor_SMD:R_0603_1608Metric" H 9350 7500 50  0001 C CNN
F 3 "~" H 9350 7500 50  0001 C CNN
	1    9350 7500
	0    1    1    0   
$EndComp
Wire Wire Line
	9200 7800 9250 7800
Wire Wire Line
	9200 7700 9550 7700
Wire Wire Line
	9550 7700 9550 7800
Wire Wire Line
	9550 7800 9650 7800
Wire Wire Line
	9650 7800 9650 7750
Wire Wire Line
	9550 7800 9450 7800
Connection ~ 9550 7800
Wire Wire Line
	9200 7600 9550 7600
Wire Wire Line
	9550 7600 9550 7500
Wire Wire Line
	9450 7500 9550 7500
Wire Wire Line
	9650 7500 9650 7550
Connection ~ 9550 7500
Wire Wire Line
	9550 7500 9650 7500
Wire Wire Line
	9250 7500 9200 7500
$Comp
L Device:R_Small R59
U 1 1 5E05CDF3
P 9350 7800
F 0 "R59" V 9450 7700 50  0000 C CNN
F 1 "121R" V 9450 8000 50  0000 C CNN
F 2 "Resistor_SMD:R_0603_1608Metric" H 9350 7800 50  0001 C CNN
F 3 "~" H 9350 7800 50  0001 C CNN
	1    9350 7800
	0    1    1    0   
$EndComp
$Comp
L Device:L_Small L3
U 1 1 5E05E47B
P 9650 8650
F 0 "L3" H 9698 8696 50  0000 L CNN
F 1 "L_Small" H 9698 8605 50  0000 L CNN
F 2 "footprints:RM3100-XY" H 9650 8650 50  0001 C CNN
F 3 "~" H 9650 8650 50  0001 C CNN
	1    9650 8650
	1    0    0    -1  
$EndComp
$Comp
L Device:R_Small R62
U 1 1 5E05E485
P 9350 8500
F 0 "R62" V 9250 8400 50  0000 C CNN
F 1 "121R" V 9250 8700 50  0000 C CNN
F 2 "Resistor_SMD:R_0603_1608Metric" H 9350 8500 50  0001 C CNN
F 3 "~" H 9350 8500 50  0001 C CNN
	1    9350 8500
	0    1    1    0   
$EndComp
Wire Wire Line
	9200 8800 9250 8800
Wire Wire Line
	9200 8700 9550 8700
Wire Wire Line
	9550 8700 9550 8800
Wire Wire Line
	9550 8800 9650 8800
Wire Wire Line
	9650 8800 9650 8750
Wire Wire Line
	9550 8800 9450 8800
Connection ~ 9550 8800
Wire Wire Line
	9200 8600 9550 8600
Wire Wire Line
	9550 8600 9550 8500
Wire Wire Line
	9450 8500 9550 8500
Wire Wire Line
	9650 8500 9650 8550
Connection ~ 9550 8500
Wire Wire Line
	9550 8500 9650 8500
Wire Wire Line
	9250 8500 9200 8500
$Comp
L Device:R_Small R63
U 1 1 5E05E49D
P 9350 8800
F 0 "R63" V 9450 8700 50  0000 C CNN
F 1 "121R" V 9450 9000 50  0000 C CNN
F 2 "Resistor_SMD:R_0603_1608Metric" H 9350 8800 50  0001 C CNN
F 3 "~" H 9350 8800 50  0001 C CNN
	1    9350 8800
	0    1    1    0   
$EndComp
$Comp
L Device:L_Small L2
U 1 1 5E0B85B8
P 9650 8150
F 0 "L2" H 9698 8196 50  0000 L CNN
F 1 "L_Small" H 9698 8105 50  0000 L CNN
F 2 "footprints:RM3100-XY" H 9650 8150 50  0001 C CNN
F 3 "~" H 9650 8150 50  0001 C CNN
	1    9650 8150
	1    0    0    -1  
$EndComp
$Comp
L Device:R_Small R60
U 1 1 5E0B85C2
P 9350 8000
F 0 "R60" V 9250 7900 50  0000 C CNN
F 1 "121R" V 9250 8200 50  0000 C CNN
F 2 "Resistor_SMD:R_0603_1608Metric" H 9350 8000 50  0001 C CNN
F 3 "~" H 9350 8000 50  0001 C CNN
	1    9350 8000
	0    1    1    0   
$EndComp
Wire Wire Line
	9200 8300 9250 8300
Wire Wire Line
	9200 8200 9550 8200
Wire Wire Line
	9550 8200 9550 8300
Wire Wire Line
	9550 8300 9650 8300
Wire Wire Line
	9650 8300 9650 8250
Wire Wire Line
	9550 8300 9450 8300
Connection ~ 9550 8300
Wire Wire Line
	9200 8100 9550 8100
Wire Wire Line
	9550 8100 9550 8000
Wire Wire Line
	9450 8000 9550 8000
Wire Wire Line
	9650 8000 9650 8050
Connection ~ 9550 8000
Wire Wire Line
	9550 8000 9650 8000
Wire Wire Line
	9250 8000 9200 8000
$Comp
L Device:R_Small R61
U 1 1 5E0B85DA
P 9350 8300
F 0 "R61" V 9450 8200 50  0000 C CNN
F 1 "121R" V 9450 8500 50  0000 C CNN
F 2 "Resistor_SMD:R_0603_1608Metric" H 9350 8300 50  0001 C CNN
F 3 "~" H 9350 8300 50  0001 C CNN
	1    9350 8300
	0    1    1    0   
$EndComp
$EndSCHEMATC
