(module RM3100-XY (layer F.Cu) (tedit 5DA78903)
  (fp_text reference REF** (at 0 -1.8) (layer F.SilkS)
    (effects (font (size 1 1) (thickness 0.15)))
  )
  (fp_text value RM3100-XY (at 0 0) (layer F.Fab)
    (effects (font (size 1 1) (thickness 0.15)))
  )
  (fp_line (start -3 -1.05) (end 3 -1.05) (layer F.SilkS) (width 0.15))
  (fp_line (start 3 1.05) (end -3 1.05) (layer F.SilkS) (width 0.15))
  (fp_line (start -3 1.05) (end -3 -1.05) (layer F.CrtYd) (width 0.15))
  (fp_line (start -3 -1.05) (end 3 -1.05) (layer F.CrtYd) (width 0.15))
  (fp_line (start 3 1.05) (end -3 1.05) (layer F.CrtYd) (width 0.15))
  (fp_line (start 3 -1.05) (end 3 1.05) (layer F.CrtYd) (width 0.15))
  (fp_line (start -3.7 -1) (end -3.7 1) (layer F.SilkS) (width 0.15))
  (pad 1 smd roundrect (at -2.85 0) (size 1.4 1.7) (layers F.Cu F.Paste F.Mask) (roundrect_rratio 0.25)
    (solder_mask_margin 0.254) (solder_paste_margin 0.1) (solder_paste_margin_ratio -0.25) (clearance 0.254))
  (pad 2 smd roundrect (at 2.85 0) (size 1.4 1.7) (layers F.Cu F.Paste F.Mask) (roundrect_rratio 0.25)
    (solder_mask_margin 0.254) (solder_paste_margin 0.1) (solder_paste_margin_ratio -0.25) (clearance 0.254))
  (model ${KIPRJMOD}/3d/rm3100-xy.stp
    (offset (xyz 3 1.04 -0.01))
    (scale (xyz 1 1 1))
    (rotate (xyz 90 -90 0))
  )
)
